code/CPU.vcd
$date
	Thu Dec 10 02:05:03 2020
$end
$version
	Icarus Verilog
$end
$timescale
	1s
$end
$scope module TestBench $end
$var reg 1 ! Clk $end
$var reg 1 " Reset $end
$var reg 1 # Start $end
$var integer 32 $ counter [31:0] $end
$var integer 32 % flush [31:0] $end
$var integer 32 & i [31:0] $end
$var integer 32 ' outfile [31:0] $end
$var integer 32 ( stall [31:0] $end
$scope module CPU $end
$var wire 32 ) EXMEM_reg2_in [31:0] $end
$var wire 32 * MEM_ALU_RES_2_MUXA [31:0] $end
$var wire 32 + MEM_ALU_RES_2_MUXB [31:0] $end
$var wire 32 , MEM_ALU_RES_AS_OUT [31:0] $end
$var wire 1 - MEM_RegWrite_2_FORWARD $end
$var wire 5 . MEM_rd_2_FORWARD [4:0] $end
$var wire 1 / WB_RegWrite_2_FORWARD $end
$var wire 5 0 WB_rd_out_2_FORWARD [4:0] $end
$var wire 32 1 WB_result_2_MUXA [31:0] $end
$var wire 32 2 WB_result_2_MUXB [31:0] $end
$var wire 1 ! clk_i $end
$var wire 1 " rst_i $end
$var wire 1 # start_i $end
$var wire 32 3 rd2 [31:0] $end
$var wire 32 4 rd1 [31:0] $end
$var wire 32 5 pc_out [31:0] $end
$var wire 1 6 pc_mux_select $end
$var wire 32 7 pc_in [31:0] $end
$var wire 32 8 pc4_adder_out [31:0] $end
$var wire 1 9 noOp $end
$var wire 1 : isZero $end
$var wire 1 ; isStall $end
$var wire 1 < isBranch $end
$var wire 32 = instruction [31:0] $end
$var wire 32 > immediates [31:0] $end
$var wire 32 ? extend_res [31:0] $end
$var wire 1 @ control_2_idex_RegWrite $end
$var wire 1 A control_2_idex_MemtoReg $end
$var wire 1 B control_2_idex_MemWrite $end
$var wire 1 C control_2_idex_MemRead $end
$var wire 1 D control_2_idex_ALUSrc $end
$var wire 2 E control_2_idex_ALUOp [1:0] $end
$var wire 32 F branch_shift_immediates [31:0] $end
$var wire 32 G branch_pc_out [31:0] $end
$var wire 1 H Ze $end
$var wire 32 I WB_result [31:0] $end
$var wire 5 J WB_rd_out [4:0] $end
$var wire 1 K WB_RegWrite $end
$var wire 1 L WB_MemtoReg $end
$var wire 32 M WB_MUX_rs2 [31:0] $end
$var wire 32 N WB_MUX_rs1 [31:0] $end
$var wire 1 O PCWrite $end
$var wire 32 P MUXB_out [31:0] $end
$var wire 5 Q MEM_rd [4:0] $end
$var wire 32 R MEM_WrData [31:0] $end
$var wire 1 S MEM_RegWrite $end
$var wire 1 T MEM_MemtoReg $end
$var wire 1 U MEM_MemWrite $end
$var wire 1 V MEM_MemRead $end
$var wire 32 W MEM_ALU_RES_AS_ADDRESS [31:0] $end
$var wire 32 X Instruction [31:0] $end
$var wire 32 Y ID_PC [31:0] $end
$var wire 2 Z ForwardB [1:0] $end
$var wire 2 [ ForwardA [1:0] $end
$var wire 5 \ EX_Rs2 [4:0] $end
$var wire 5 ] EX_Rs1 [4:0] $end
$var wire 1 ^ EX_RegWrite $end
$var wire 32 _ EX_Rdata2 [31:0] $end
$var wire 32 ` EX_Rdata1 [31:0] $end
$var wire 5 a EX_Rd [4:0] $end
$var wire 1 b EX_MemtoReg $end
$var wire 1 c EX_MemWrite $end
$var wire 1 d EX_MemRead $end
$var wire 1 e EX_ALUSrc $end
$var wire 2 f EX_ALUOp [1:0] $end
$var wire 10 g EX_ALUCtrl [9:0] $end
$var wire 32 h DM_out [31:0] $end
$var wire 32 i ALU_out [31:0] $end
$var wire 32 j ALU_IN2 [31:0] $end
$var wire 32 k ALU_IN1 [31:0] $end
$var wire 4 l ALUCtrl_out [3:0] $end
$scope module ALU $end
$var wire 32 m data2_i [31:0] $end
$var wire 32 n data1_i [31:0] $end
$var wire 4 o ALUCtrl_i [3:0] $end
$var reg 1 H Zero_o $end
$var reg 32 p data_o [31:0] $end
$var reg 5 q shift_left_num [4:0] $end
$var reg 5 r shift_right_num [4:0] $end
$upscope $end
$scope module ALU_Control $end
$var wire 10 s funct_i [9:0] $end
$var wire 2 t ALUOp_i [1:0] $end
$var reg 4 u ALUCtrl_o [3:0] $end
$upscope $end
$scope module Add4_2PC $end
$var wire 32 v data2_in [31:0] $end
$var wire 32 w data_o [31:0] $end
$var wire 32 x data1_in [31:0] $end
$upscope $end
$scope module Add_PC_Branch $end
$var wire 32 y data2_in [31:0] $end
$var wire 32 z data_o [31:0] $end
$var wire 32 { data1_in [31:0] $end
$upscope $end
$scope module Control $end
$var wire 7 | op_i [6:0] $end
$var wire 1 9 NoOp_i $end
$var reg 2 } ALUOp_o [1:0] $end
$var reg 1 D ALUSrc_o $end
$var reg 1 < Branch_o $end
$var reg 1 C MemRead_o $end
$var reg 1 B MemWrite_o $end
$var reg 1 A MemtoReg_o $end
$var reg 1 @ RegWrite_o $end
$upscope $end
$scope module Data_Memory $end
$var wire 1 ! clk_i $end
$var wire 32 ~ data_o [31:0] $end
$var wire 32 !" data_i [31:0] $end
$var wire 32 "" addr_i [31:0] $end
$var wire 1 U MemWrite_i $end
$var wire 1 V MemRead_i $end
$upscope $end
$scope module EXMEM $end
$var wire 32 #" ALUResult_i [31:0] $end
$var wire 32 $" Reg2_i [31:0] $end
$var wire 1 ! clk_i $end
$var wire 1 ^ RegWrite_i $end
$var wire 5 %" Rd_i [4:0] $end
$var wire 1 b MemtoReg_i $end
$var wire 1 c MemWrite_i $end
$var wire 1 d MemRead_i $end
$var reg 32 &" ALUResult_o [31:0] $end
$var reg 32 '" DATAWr_o [31:0] $end
$var reg 1 V MemRead_o $end
$var reg 1 U MemWrite_o $end
$var reg 1 T MemtoReg_o $end
$var reg 5 (" Rd_o [4:0] $end
$var reg 1 S RegWrite_o $end
$upscope $end
$scope module FORWARD_UNIT $end
$var wire 5 )" MEMRd_i [4:0] $end
$var wire 1 - MEMRegWrite_i $end
$var wire 5 *" WBRd_i [4:0] $end
$var wire 1 / WBRegWrite_i $end
$var wire 5 +" Rs2_i [4:0] $end
$var wire 5 ," Rs1_i [4:0] $end
$var wire 2 -" Forward2_o [1:0] $end
$var wire 2 ." Forward1_o [1:0] $end
$upscope $end
$scope module HAZRD_DETECT_UNIT $end
$var wire 1 V EX_MEMRead_i $end
$var wire 5 /" Rs1_i [4:0] $end
$var wire 5 0" Rs2_i [4:0] $end
$var wire 1 ; Stall_o $end
$var wire 1 O PCWrite_o $end
$var wire 1 9 NoOp_o $end
$var wire 5 1" EXRd_i [4:0] $end
$upscope $end
$scope module IDEX $end
$var wire 2 2" ALUOp_i [1:0] $end
$var wire 1 D ALUSrc_i $end
$var wire 1 C MemRead_i $end
$var wire 1 B MemWrite_i $end
$var wire 1 A MemtoReg_i $end
$var wire 5 3" Rd_i [4:0] $end
$var wire 1 @ RegWrite_i $end
$var wire 5 4" Rs1_i [4:0] $end
$var wire 5 5" Rs2_i [4:0] $end
$var wire 1 ! clk_i $end
$var wire 10 6" funct_i [9:0] $end
$var wire 32 7" Reg2_i [31:0] $end
$var wire 32 8" Reg1_i [31:0] $end
$var wire 32 9" Imm_i [31:0] $end
$var reg 2 :" ALUOp_o [1:0] $end
$var reg 1 e ALUSrc_o $end
$var reg 32 ;" Imm_o [31:0] $end
$var reg 1 d MemRead_o $end
$var reg 1 c MemWrite_o $end
$var reg 1 b MemtoReg_o $end
$var reg 5 <" Rd_o [4:0] $end
$var reg 32 =" Reg1_o [31:0] $end
$var reg 32 >" Reg2_o [31:0] $end
$var reg 1 ^ RegWrite_o $end
$var reg 5 ?" Rs1_o [4:0] $end
$var reg 5 @" Rs2_o [4:0] $end
$var reg 10 A" funct_o [9:0] $end
$upscope $end
$scope module IFID $end
$var wire 1 ; Stall_i $end
$var wire 1 ! clk_i $end
$var wire 32 B" PC_i [31:0] $end
$var wire 32 C" Inst_i [31:0] $end
$var wire 1 6 Flush_i $end
$var reg 32 D" Inst_o [31:0] $end
$var reg 32 E" PC_o [31:0] $end
$upscope $end
$scope module Instruction_Memory $end
$var wire 32 F" instr_o [31:0] $end
$var wire 32 G" addr_i [31:0] $end
$upscope $end
$scope module IsJunp $end
$var wire 1 < branch_i $end
$var wire 1 : equal_i $end
$var reg 1 6 branch_o $end
$upscope $end
$scope module MEMWB $end
$var wire 32 H" ALUResult_i [31:0] $end
$var wire 32 I" DATARd_i [31:0] $end
$var wire 1 T MemtoReg_i $end
$var wire 5 J" Rd_i [4:0] $end
$var wire 1 S RegWrite_i $end
$var wire 1 ! clk_i $end
$var reg 32 K" ALUResult_o [31:0] $end
$var reg 32 L" DATARd_o [31:0] $end
$var reg 1 L MemtoReg_o $end
$var reg 5 M" Rd_o [4:0] $end
$var reg 1 K RegWrite_o $end
$upscope $end
$scope module MUX32_4A $end
$var wire 32 N" ID_i [31:0] $end
$var wire 32 O" MEM_i [31:0] $end
$var wire 32 P" WB_i [31:0] $end
$var wire 2 Q" signal_i [1:0] $end
$var wire 32 R" data_o [31:0] $end
$upscope $end
$scope module MUX32_4B $end
$var wire 32 S" ID_i [31:0] $end
$var wire 32 T" MEM_i [31:0] $end
$var wire 32 U" WB_i [31:0] $end
$var wire 2 V" signal_i [1:0] $end
$var wire 32 W" data_o [31:0] $end
$upscope $end
$scope module MUX_ALUSrc $end
$var wire 32 X" data1_i [31:0] $end
$var wire 32 Y" data2_i [31:0] $end
$var wire 1 e select_i $end
$var reg 32 Z" data_o [31:0] $end
$upscope $end
$scope module PC $end
$var wire 1 O PCWrite_i $end
$var wire 1 ! clk_i $end
$var wire 1 " rst_i $end
$var wire 1 # start_i $end
$var wire 32 [" pc_i [31:0] $end
$var reg 32 \" pc_o [31:0] $end
$upscope $end
$scope module PC_MUX $end
$var wire 32 ]" data1_i [31:0] $end
$var wire 32 ^" data2_i [31:0] $end
$var wire 1 6 select_i $end
$var reg 32 _" data_o [31:0] $end
$upscope $end
$scope module RS1RS2 $end
$var wire 1 : equal_o $end
$var wire 32 `" data2_i [31:0] $end
$var wire 32 a" data1_i [31:0] $end
$upscope $end
$scope module Registers $end
$var wire 5 b" RDaddr_i [4:0] $end
$var wire 5 c" RS1addr_i [4:0] $end
$var wire 5 d" RS2addr_i [4:0] $end
$var wire 1 K RegWrite_i $end
$var wire 1 ! clk_i $end
$var wire 32 e" RS2data_o [31:0] $end
$var wire 32 f" RS1data_o [31:0] $end
$var wire 32 g" RDdata_i [31:0] $end
$upscope $end
$scope module Sign_Extender $end
$var wire 32 h" data_i [31:0] $end
$var reg 32 i" data_o [31:0] $end
$upscope $end
$scope module WB_MUX $end
$var wire 32 j" data1_i [31:0] $end
$var wire 32 k" data2_i [31:0] $end
$var wire 1 L select_i $end
$var reg 32 l" data_o [31:0] $end
$upscope $end
$upscope $end
$upscope $end
$enddefinitions $end
#0
$dumpvars
b0 l"
b0 k"
b0 j"
b0 i"
b0 h"
b0 g"
b0 f"
b0 e"
b0 d"
b0 c"
b0 b"
b0 a"
b0 `"
b100 _"
b0 ^"
b100 ]"
b0 \"
b100 ["
bx Z"
b0 Y"
bx X"
bx W"
b0 V"
b0 U"
bz T"
bx S"
bx R"
b0 Q"
b0 P"
bx O"
bx N"
b0 M"
b0 L"
b0 K"
b0 J"
b0 I"
bx H"
b0 G"
b101100000000001010010011 F"
b0 E"
b0 D"
b101100000000001010010011 C"
b0 B"
b0 A"
b0 @"
b0 ?"
bx >"
bx ="
b0 <"
b0 ;"
bx :"
b0 9"
b0 8"
b0 7"
b0 6"
b0 5"
b0 4"
b0 3"
bx 2"
b0 1"
b0 0"
b0 /"
b0 ."
b0 -"
b0 ,"
b0 +"
b0 *"
b0 )"
b0 ("
bx '"
bx &"
b0 %"
bx $"
bx #"
bx ""
bx !"
b0 ~
bx }
b0 |
b0 {
b0 z
b0 y
b0 x
b100 w
b100 v
b1001 u
bx t
b0 s
bx r
bx q
bx p
b1001 o
bx n
bx m
b1001 l
bx k
bx j
bx i
b0 h
b0 g
bx f
xe
xd
xc
xb
b0 a
bx `
bx _
x^
b0 ]
b0 \
b0 [
b0 Z
b0 Y
b0 X
bx W
0V
0U
0T
0S
bx R
b0 Q
bx P
1O
b0 N
b0 M
0L
0K
b0 J
b0 I
0H
b0 G
b0 F
bx E
xD
xC
xB
xA
x@
b0 ?
b0 >
b101100000000001010010011 =
x<
0;
0:
09
b100 8
b100 7
06
b0 5
b0 4
b0 3
b0 2
b0 1
b0 0
0/
b0 .
0-
bx ,
bz +
bx *
bx )
b0 (
b101 '
b100000 &
b0 %
b0 $
0#
1"
1!
$end
#12
1#
0"
#25
0!
#50
bx0 Z
bx0 -"
bx0 V"
0H
bx i
bx p
bx #"
bx j
bx m
bx Z"
b10110 G
b10110 z
b10110 ^"
b10110 F
b10110 y
0C
0<
0B
b11 E
b11 }
b11 2"
1D
1@
0A
bx 2
bx U"
bx 1
bx P"
bx I
bx g"
bx l"
bx h
bx ~
bx I"
bx )
bx $"
bx P
bx W"
bx X"
b0 k
b0 n
b0 R"
b1011 ?
b1011 9"
b1011 i"
b101 3"
b1011 5"
b1011 d"
b10011 |
b1011 0"
b101000000000001100010011 =
b101000000000001100010011 C"
b101000000000001100010011 F"
b1000 7
b1000 ["
b1000 _"
bx N
bx K"
bx j"
xU
xV
xT
x-
xS
b0 _
b0 >"
b0 S"
b0 `
b0 ="
b0 N"
b101100000000001010010011 X
b101100000000001010010011 D"
b101100000000001010010011 h"
b1000 8
b1000 w
b1000 ]"
b100 5
b100 x
b100 B"
b100 G"
b100 \"
b1 $
1!
#75
0!
#100
b0 )
b0 $"
b0 P
b0 W"
b0 X"
b10100 F
b10100 y
b0 Z
b0 -"
b0 V"
b1011 i
b1011 p
b1011 #"
bx 4
bx 8"
bx a"
bx f"
b1010 ?
b1010 9"
b1010 i"
b110 3"
b1010 5"
b1010 d"
b1010 0"
b1011 j
b1011 m
b1011 Z"
b110 l
b110 o
b110 u
b100010111100000011 =
b100010111100000011 C"
b100010111100000011 F"
b1100 7
b1100 ["
b1100 _"
b11000 G
b11000 z
b11000 ^"
b100 Y
b100 {
b100 E"
b101000000000001100010011 X
b101000000000001100010011 D"
b101000000000001100010011 h"
b101 a
b101 %"
b101 1"
b101 <"
b1011 \
b1011 +"
b1011 @"
b1011 >
b1011 ;"
b1011 Y"
1e
b11 f
b11 t
b11 :"
0c
0d
0b
1^
bx M
bx L"
bx k"
xL
x/
xK
b1100 8
b1100 w
b1100 ]"
b1000 5
b1000 x
b1000 B"
b1000 G"
b1000 \"
b10 $
1!
#125
0!
#150
bx 3
bx 7"
bx `"
bx e"
b0 4
b0 8"
b0 a"
b0 f"
bx i
bx p
bx #"
b0 F
b0 y
1C
b0 E
b0 }
b0 2"
1A
b0 h
b0 ~
b0 I"
b1010 j
b1010 m
b1010 Z"
bx k
bx n
bx R"
b0 ?
b0 9"
b0 i"
b11110 3"
b0 5"
b100 4"
b10 6"
b0 d"
b100 c"
b11 |
b0 0"
b100 /"
b111100000000001110010011 =
b111100000000001110010011 C"
b111100000000001110010011 F"
b10000 7
b10000 ["
b10000 _"
b0 R
b0 !"
b0 '"
b1011 *
b1011 O"
b1011 ,
b1011 H"
b1011 W
b1011 ""
b1011 &"
b101 .
b101 )"
b101 Q
b101 ("
b101 J"
0U
0V
0T
1-
1S
b110 a
b110 %"
b110 1"
b110 <"
b1010 \
b1010 +"
b1010 @"
b1010 >
b1010 ;"
b1010 Y"
bx `
bx ="
bx N"
b1000 G
b1000 z
b1000 ^"
b1000 Y
b1000 {
b1000 E"
b100010111100000011 X
b100010111100000011 D"
b100010111100000011 h"
b10000 8
b10000 w
b10000 ]"
b1100 5
b1100 x
b1100 B"
b1100 G"
b1100 \"
b11 $
1!
#175
0!
#200
b11110 F
b11110 y
0C
b11 E
b11 }
b11 2"
0A
1H
b0 i
b0 p
b0 #"
b0 3
b0 7"
b0 `"
b0 e"
b1111 ?
b1111 9"
b1111 i"
b111 3"
b1111 5"
b0 4"
b0 6"
b1111 d"
b0 c"
b10011 |
b1111 0"
b0 /"
b0 j
b0 m
b0 Z"
bx )
bx $"
bx P
bx W"
bx X"
b0 k
b0 n
b0 R"
b1000 l
b1000 o
b1000 u
b1011 2
b1011 U"
b1011 1
b1011 P"
b1011 I
b1011 g"
b1011 l"
b1100000000010000010011 =
b1100000000010000010011 C"
b1100000000010000010011 F"
b10100 7
b10100 ["
b10100 _"
b101010 G
b101010 z
b101010 ^"
b1100 Y
b1100 {
b1100 E"
b111100000000001110010011 X
b111100000000001110010011 D"
b111100000000001110010011 h"
b11110 a
b11110 %"
b11110 1"
b11110 <"
b0 \
b0 +"
b0 @"
b100 ]
b100 ,"
b100 ?"
b10 g
b10 s
b10 A"
b0 >
b0 ;"
b0 Y"
bx _
bx >"
bx S"
b0 `
b0 ="
b0 N"
b0 f
b0 t
b0 :"
1d
1b
bx *
bx O"
bx ,
bx H"
bx W
bx ""
bx &"
b110 .
b110 )"
b110 Q
b110 ("
b110 J"
b0 M
b0 L"
b0 k"
b101 0
b101 *"
b101 J
b101 M"
b101 b"
b1011 N
b1011 K"
b1011 j"
0L
1/
1K
b10100 8
b10100 w
b10100 ]"
b10000 5
b10000 x
b10000 B"
b10000 G"
b10000 \"
b100 $
1!
#225
0!
#250
0H
b1111 i
b1111 p
b1111 #"
b110 F
b110 y
bx 2
bx U"
bx 1
bx P"
bx I
bx g"
bx l"
b101 h
b101 ~
b101 I"
b1111 j
b1111 m
b1111 Z"
b0 )
b0 $"
b0 P
b0 W"
b0 X"
b110 l
b110 o
b110 u
b11 ?
b11 9"
b11 i"
b1000 3"
b11 5"
b11 d"
b11 0"
b101100010010110011 =
b101100010010110011 C"
b101100010010110011 F"
b11000 7
b11000 ["
b11000 _"
b110 0
b110 *"
b110 J
b110 M"
b110 b"
bx N
bx K"
bx j"
bx R
bx !"
bx '"
b0 *
b0 O"
b0 ,
b0 H"
b0 W
b0 ""
b0 &"
b11110 .
b11110 )"
b11110 Q
b11110 ("
b11110 J"
1V
1T
b111 a
b111 %"
b111 1"
b111 <"
b1111 \
b1111 +"
b1111 @"
b0 ]
b0 ,"
b0 ?"
b0 g
b0 s
b0 A"
b1111 >
b1111 ;"
b1111 Y"
b0 _
b0 >"
b0 S"
b11 f
b11 t
b11 :"
0d
0b
b10110 G
b10110 z
b10110 ^"
b10000 Y
b10000 {
b10000 E"
b1100000000010000010011 X
b1100000000010000010011 D"
b1100000000010000010011 h"
b11000 8
b11000 w
b11000 ]"
b10100 5
b10100 x
b10100 B"
b10100 G"
b10100 \"
b101 $
1!
#275
0!
#300
b0 F
b0 y
b1011 4
b1011 8"
b1011 a"
b1011 f"
b10 E
b10 }
b10 2"
0D
b11 i
b11 p
b11 #"
b0 ?
b0 9"
b0 i"
b1001 3"
b0 5"
b101 4"
b100 6"
b0 d"
b101 c"
b110011 |
b0 0"
b101 /"
b11 j
b11 m
b11 Z"
b0 h
b0 ~
b0 I"
b101 2
b101 U"
b101 1
b101 P"
b101 I
b101 g"
b101 l"
b11000101111111000110011 =
b11000101111111000110011 C"
b11000101111111000110011 F"
b11100 7
b11100 ["
b11100 _"
b10100 G
b10100 z
b10100 ^"
b10100 Y
b10100 {
b10100 E"
b101100010010110011 X
b101100010010110011 D"
b101100010010110011 h"
b1000 a
b1000 %"
b1000 1"
b1000 <"
b11 \
b11 +"
b11 @"
b11 >
b11 ;"
b11 Y"
b0 R
b0 !"
b0 '"
b1111 *
b1111 O"
b1111 ,
b1111 H"
b1111 W
b1111 ""
b1111 &"
b111 .
b111 )"
b111 Q
b111 ("
b111 J"
0V
0T
b101 M
b101 L"
b101 k"
b11110 0
b11110 *"
b11110 J
b11110 M"
b11110 b"
b0 N
b0 K"
b0 j"
1L
b11100 8
b11100 w
b11100 ]"
b11000 5
b11000 x
b11000 B"
b11000 G"
b11000 \"
b110 $
1!
#325
0!
#350
x:
b1011 i
b1011 p
b1011 #"
b1100 F
b1100 y
bx 3
bx 7"
bx `"
bx e"
b1111 2
b1111 U"
b1111 1
b1111 P"
b1111 I
b1111 g"
b1111 l"
b1011 k
b1011 n
b1011 R"
b0 j
b0 m
b0 Z"
b1 l
b1 o
b1 u
b110 ?
b110 9"
b110 i"
b11100 3"
b110 5"
b111 6"
b110 d"
b110 0"
b1000000011000101000010000110011 =
b1000000011000101000010000110011 C"
b1000000011000101000010000110011 F"
b100000 7
b100000 ["
b100000 _"
b0 M
b0 L"
b0 k"
b111 0
b111 *"
b111 J
b111 M"
b111 b"
b1111 N
b1111 K"
b1111 j"
0L
b11 *
b11 O"
b11 ,
b11 H"
b11 W
b11 ""
b11 &"
b1000 .
b1000 )"
b1000 Q
b1000 ("
b1000 J"
b1001 a
b1001 %"
b1001 1"
b1001 <"
b0 \
b0 +"
b0 @"
b101 ]
b101 ,"
b101 ?"
b100 g
b100 s
b100 A"
b0 >
b0 ;"
b0 Y"
b1011 `
b1011 ="
b1011 N"
0e
b10 f
b10 t
b10 :"
b100100 G
b100100 z
b100100 ^"
b11000 Y
b11000 {
b11000 E"
b11000101111111000110011 X
b11000101111111000110011 D"
b11000101111111000110011 h"
b100000 8
b100000 w
b100000 ]"
b11100 5
b11100 x
b11100 B"
b11100 G"
b11100 \"
b111 $
1!
#375
0!
#400
b100000001100 F
b100000001100 y
b0x0xx i
b0x0xx p
b0x0xx #"
b10000000110 ?
b10000000110 9"
b10000000110 i"
b1000 3"
b100000000 6"
b0 l
b0 o
b0 u
bx j
bx m
bx Z"
bx )
bx $"
bx P
bx W"
bx X"
b11 2
b11 U"
b11 1
b11 P"
b11 I
b11 g"
b11 l"
b10011000110000111010110011 =
b10011000110000111010110011 C"
b10011000110000111010110011 F"
b100100 7
b100100 ["
b100100 _"
b100000101000 G
b100000101000 z
b100000101000 ^"
b11100 Y
b11100 {
b11100 E"
b1000000011000101000010000110011 X
b1000000011000101000010000110011 D"
b1000000011000101000010000110011 h"
b11100 a
b11100 %"
b11100 1"
b11100 <"
b110 \
b110 +"
b110 @"
b111 g
b111 s
b111 A"
b110 >
b110 ;"
b110 Y"
bx _
bx >"
bx S"
b1011 *
b1011 O"
b1011 ,
b1011 H"
b1011 W
b1011 ""
b1011 &"
b1001 .
b1001 )"
b1001 Q
b1001 ("
b1001 J"
b1000 0
b1000 *"
b1000 J
b1000 M"
b1000 b"
b11 N
b11 K"
b11 j"
b100100 8
b100100 w
b100100 ]"
b100000 5
b100000 x
b100000 B"
b100000 G"
b100000 \"
b1000 $
1!
#425
0!
#450
bx i
bx p
bx #"
b1001100 F
b1001100 y
bx 4
bx 8"
bx a"
bx f"
b1011 2
b1011 U"
b1011 1
b1011 P"
b1011 I
b1011 g"
b1011 l"
b100 l
b100 o
b100 u
b100110 ?
b100110 9"
b100110 i"
b11101 3"
b110 4"
b1000 6"
b110 c"
b110 /"
b10011101001000111100110011 =
b10011101001000111100110011 C"
b10011101001000111100110011 F"
b101000 7
b101000 ["
b101000 _"
b1001 0
b1001 *"
b1001 J
b1001 M"
b1001 b"
b1011 N
b1011 K"
b1011 j"
bx R
bx !"
bx '"
b0x0xx *
b0x0xx O"
b0x0xx ,
b0x0xx H"
b0x0xx W
b0x0xx ""
b0x0xx &"
b11100 .
b11100 )"
b11100 Q
b11100 ("
b11100 J"
b1000 a
b1000 %"
b1000 1"
b1000 <"
b100000000 g
b100000000 s
b100000000 A"
b10000000110 >
b10000000110 ;"
b10000000110 Y"
b1101100 G
b1101100 z
b1101100 ^"
b100000 Y
b100000 {
b100000 E"
b10011000110000111010110011 X
b10011000110000111010110011 D"
b10011000110000111010110011 h"
b101000 8
b101000 w
b101000 ]"
b100100 5
b100100 x
b100100 B"
b100100 G"
b100100 \"
b1001 $
1!
#475
0!
#500
0:
b1001110 F
b1001110 y
b1111 3
b1111 7"
b1111 `"
b1111 e"
b1011 4
b1011 8"
b1011 a"
b1011 f"
b100111 ?
b100111 9"
b100111 i"
b11110 3"
b111 5"
b1001 4"
b111 d"
b1001 c"
b111 0"
b1001 /"
b101 l
b101 o
b101 u
bx k
bx n
bx R"
b0x0xx 2
b0x0xx U"
b0x0xx 1
b0x0xx P"
b0x0xx I
b0x0xx g"
b0x0xx l"
b100100101010001010100011 =
b100100101010001010100011 C"
b100100101010001010100011 F"
b101100 7
b101100 ["
b101100 _"
b1110010 G
b1110010 z
b1110010 ^"
b100100 Y
b100100 {
b100100 E"
b10011101001000111100110011 X
b10011101001000111100110011 D"
b10011101001000111100110011 h"
b11101 a
b11101 %"
b11101 1"
b11101 <"
b110 ]
b110 ,"
b110 ?"
b1000 g
b1000 s
b1000 A"
b100110 >
b100110 ;"
b100110 Y"
bx `
bx ="
bx N"
bx *
bx O"
bx ,
bx H"
bx W
bx ""
bx &"
b1000 .
b1000 )"
b1000 Q
b1000 ("
b1000 J"
b11100 0
b11100 *"
b11100 J
b11100 M"
b11100 b"
b0x0xx N
b0x0xx K"
b0x0xx j"
b101100 8
b101100 w
b101100 ]"
b101000 5
b101000 x
b101000 B"
b101000 G"
b101000 \"
b1010 $
1!
#525
0!
#550
1:
b10100101 i
b10100101 p
b10100101 #"
b1010 F
b1010 y
b1011 3
b1011 7"
b1011 `"
b1011 e"
1B
b0 E
b0 }
b0 2"
1D
0@
bx 2
bx U"
bx 1
bx P"
bx I
bx g"
bx l"
b1111 j
b1111 m
b1111 Z"
b1111 )
b1111 $"
b1111 P
b1111 W"
b1111 X"
b1011 k
b1011 n
b1011 R"
b101 ?
b101 9"
b101 i"
b101 3"
b1001 5"
b101 4"
b10 6"
b1001 d"
b101 c"
b100011 |
b1001 0"
b101 /"
b0 =
b0 C"
b0 F"
b110000 7
b110000 ["
b110000 _"
b1000 0
b1000 *"
b1000 J
b1000 M"
b1000 b"
bx N
bx K"
bx j"
b11101 .
b11101 )"
b11101 Q
b11101 ("
b11101 J"
b11110 a
b11110 %"
b11110 1"
b11110 <"
b111 \
b111 +"
b111 @"
b1001 ]
b1001 ,"
b1001 ?"
b100111 >
b100111 ;"
b100111 Y"
b1111 _
b1111 >"
b1111 S"
b1011 `
b1011 ="
b1011 N"
b110010 G
b110010 z
b110010 ^"
b101000 Y
b101000 {
b101000 E"
b100100101010001010100011 X
b100100101010001010100011 D"
b100100101010001010100011 h"
b110000 8
b110000 w
b110000 ]"
b101100 5
b101100 x
b101100 B"
b101100 G"
b101100 \"
b1011 $
1!
#575
0!
#600
0:
b0 F
b0 y
b0 3
b0 7"
b0 `"
b0 e"
b0 4
b0 8"
b0 a"
b0 f"
b10000 i
b10000 p
b10000 #"
b0 ?
b0 9"
b0 i"
b0 3"
b0 5"
b0 4"
b0 6"
b0 d"
b0 c"
b0 |
b0 0"
b0 /"
b1011 )
b1011 $"
b1011 P
b1011 W"
b1011 X"
b101 j
b101 m
b101 Z"
b1000 l
b1000 o
b1000 u
b110100 7
b110100 ["
b110100 _"
b0 G
b0 z
b0 ^"
b0 Y
b0 {
b0 E"
b0 X
b0 D"
b0 h"
b101 a
b101 %"
b101 1"
b101 <"
b1001 \
b1001 +"
b1001 @"
b101 ]
b101 ,"
b101 ?"
b10 g
b10 s
b10 A"
b101 >
b101 ;"
b101 Y"
b1011 _
b1011 >"
b1011 S"
1e
b0 f
b0 t
b0 :"
1c
0^
b1111 R
b1111 !"
b1111 '"
b10100101 *
b10100101 O"
b10100101 ,
b10100101 H"
b10100101 W
b10100101 ""
b10100101 &"
b11110 .
b11110 )"
b11110 Q
b11110 ("
b11110 J"
b11101 0
b11101 *"
b11101 J
b11101 M"
b11101 b"
b110100 8
b110100 w
b110100 ]"
b110000 5
b110000 x
b110000 B"
b110000 G"
b110000 \"
b1100 $
1!
#625
0!
#650
1H
b0 i
b0 p
b0 #"
b10100101 2
b10100101 U"
b10100101 1
b10100101 P"
b10100101 I
b10100101 g"
b10100101 l"
b0 j
b0 m
b0 Z"
b0 )
b0 $"
b0 P
b0 W"
b0 X"
b0 k
b0 n
b0 R"
b111000 7
b111000 ["
b111000 _"
b11110 0
b11110 *"
b11110 J
b11110 M"
b11110 b"
b10100101 N
b10100101 K"
b10100101 j"
b1011 R
b1011 !"
b1011 '"
b10000 *
b10000 O"
b10000 ,
b10000 H"
b10000 W
b10000 ""
b10000 &"
b101 .
b101 )"
b101 Q
b101 ("
b101 J"
1U
0-
0S
b0 a
b0 %"
b0 1"
b0 <"
b0 \
b0 +"
b0 @"
b0 ]
b0 ,"
b0 ?"
b0 g
b0 s
b0 A"
b0 >
b0 ;"
b0 Y"
b0 _
b0 >"
b0 S"
b0 `
b0 ="
b0 N"
b111000 8
b111000 w
b111000 ]"
b110100 5
b110100 x
b110100 B"
b110100 G"
b110100 \"
b1101 $
1!
#675
0!
#700
b10000 2
b10000 U"
b10000 1
b10000 P"
b10000 I
b10000 g"
b10000 l"
b111100 7
b111100 ["
b111100 _"
b0 R
b0 !"
b0 '"
b0 *
b0 O"
b0 ,
b0 H"
b0 W
b0 ""
b0 &"
b0 .
b0 )"
b0 Q
b0 ("
b0 J"
b101 0
b101 *"
b101 J
b101 M"
b101 b"
b10000 N
b10000 K"
b10000 j"
0/
0K
b111100 8
b111100 w
b111100 ]"
b111000 5
b111000 x
b111000 B"
b111000 G"
b111000 \"
b1110 $
1!
#725
0!
#750
b0 2
b0 U"
b0 1
b0 P"
b0 I
b0 g"
b0 l"
b1000000 7
b1000000 ["
b1000000 _"
b0 0
b0 *"
b0 J
b0 M"
b0 b"
b0 N
b0 K"
b0 j"
b1000000 8
b1000000 w
b1000000 ]"
b111100 5
b111100 x
b111100 B"
b111100 G"
b111100 \"
b1111 $
1!
#775
0!
#800
b1000100 7
b1000100 ["
b1000100 _"
b1000100 8
b1000100 w
b1000100 ]"
b1000000 5
b1000000 x
b1000000 B"
b1000000 G"
b1000000 \"
b10000 $
1!
#825
0!
