code/CPU.vcd
$date
	Thu Dec 10 12:35:23 2020
$end
$version
	Icarus Verilog
$end
$timescale
	1s
$end
$scope module TestBench $end
$var reg 1 ! Clk $end
$var reg 1 " Reset $end
$var reg 1 # Start $end
$var integer 32 $ counter [31:0] $end
$var integer 32 % flush [31:0] $end
$var integer 32 & i [31:0] $end
$var integer 32 ' outfile [31:0] $end
$var integer 32 ( stall [31:0] $end
$scope module CPU $end
$var wire 32 ) EXMEM_reg2_in [31:0] $end
$var wire 32 * MEM_ALU_RES_2_MUXA [31:0] $end
$var wire 32 + MEM_ALU_RES_2_MUXB [31:0] $end
$var wire 32 , MEM_ALU_RES_AS_OUT [31:0] $end
$var wire 1 - MEM_RegWrite_2_FORWARD $end
$var wire 5 . MEM_rd_2_FORWARD [4:0] $end
$var wire 1 / WB_RegWrite_2_FORWARD $end
$var wire 5 0 WB_rd_out_2_FORWARD [4:0] $end
$var wire 32 1 WB_result_2_MUXA [31:0] $end
$var wire 32 2 WB_result_2_MUXB [31:0] $end
$var wire 1 ! clk_i $end
$var wire 1 " rst_i $end
$var wire 1 # start_i $end
$var wire 32 3 rd2 [31:0] $end
$var wire 32 4 rd1 [31:0] $end
$var wire 32 5 pc_out [31:0] $end
$var wire 1 6 pc_mux_select $end
$var wire 32 7 pc_in [31:0] $end
$var wire 32 8 pc4_adder_out [31:0] $end
$var wire 1 9 noOp $end
$var wire 1 : isZero $end
$var wire 1 ; isStall $end
$var wire 1 < isBranch $end
$var wire 32 = instruction [31:0] $end
$var wire 32 > immediates [31:0] $end
$var wire 32 ? extend_res [31:0] $end
$var wire 1 @ control_2_idex_RegWrite $end
$var wire 1 A control_2_idex_MemtoReg $end
$var wire 1 B control_2_idex_MemWrite $end
$var wire 1 C control_2_idex_MemRead $end
$var wire 1 D control_2_idex_ALUSrc $end
$var wire 2 E control_2_idex_ALUOp [1:0] $end
$var wire 32 F branch_shift_immediates [31:0] $end
$var wire 32 G branch_pc_out [31:0] $end
$var wire 1 H Ze $end
$var wire 32 I WB_result [31:0] $end
$var wire 5 J WB_rd_out [4:0] $end
$var wire 1 K WB_RegWrite $end
$var wire 1 L WB_MemtoReg $end
$var wire 32 M WB_MUX_rs2 [31:0] $end
$var wire 32 N WB_MUX_rs1 [31:0] $end
$var wire 1 O PCWrite $end
$var wire 32 P MUXB_out [31:0] $end
$var wire 5 Q MEM_rd [4:0] $end
$var wire 32 R MEM_WrData [31:0] $end
$var wire 1 S MEM_RegWrite $end
$var wire 1 T MEM_MemtoReg $end
$var wire 1 U MEM_MemWrite $end
$var wire 1 V MEM_MemRead $end
$var wire 32 W MEM_ALU_RES_AS_ADDRESS [31:0] $end
$var wire 32 X Instruction [31:0] $end
$var wire 32 Y ID_PC [31:0] $end
$var wire 2 Z ForwardB [1:0] $end
$var wire 2 [ ForwardA [1:0] $end
$var wire 5 \ EX_Rs2 [4:0] $end
$var wire 5 ] EX_Rs1 [4:0] $end
$var wire 1 ^ EX_RegWrite $end
$var wire 32 _ EX_Rdata2 [31:0] $end
$var wire 32 ` EX_Rdata1 [31:0] $end
$var wire 5 a EX_Rd [4:0] $end
$var wire 1 b EX_MemtoReg $end
$var wire 1 c EX_MemWrite $end
$var wire 1 d EX_MemRead $end
$var wire 1 e EX_ALUSrc $end
$var wire 2 f EX_ALUOp [1:0] $end
$var wire 10 g EX_ALUCtrl [9:0] $end
$var wire 32 h DM_out [31:0] $end
$var wire 32 i ALU_out [31:0] $end
$var wire 32 j ALU_IN2 [31:0] $end
$var wire 32 k ALU_IN1 [31:0] $end
$var wire 4 l ALUCtrl_out [3:0] $end
$scope module ALU $end
$var wire 32 m data2_i [31:0] $end
$var wire 32 n data1_i [31:0] $end
$var wire 4 o ALUCtrl_i [3:0] $end
$var reg 1 H Zero_o $end
$var reg 32 p data_o [31:0] $end
$var reg 5 q shift_left_num [4:0] $end
$var reg 5 r shift_right_num [4:0] $end
$upscope $end
$scope module ALU_Control $end
$var wire 10 s funct_i [9:0] $end
$var wire 2 t ALUOp_i [1:0] $end
$var reg 4 u ALUCtrl_o [3:0] $end
$upscope $end
$scope module Add4_2PC $end
$var wire 32 v data2_in [31:0] $end
$var wire 32 w data_o [31:0] $end
$var wire 32 x data1_in [31:0] $end
$upscope $end
$scope module Add_PC_Branch $end
$var wire 32 y data2_in [31:0] $end
$var wire 32 z data_o [31:0] $end
$var wire 32 { data1_in [31:0] $end
$upscope $end
$scope module Control $end
$var wire 7 | op_i [6:0] $end
$var wire 1 9 NoOp_i $end
$var reg 2 } ALUOp_o [1:0] $end
$var reg 1 D ALUSrc_o $end
$var reg 1 < Branch_o $end
$var reg 1 C MemRead_o $end
$var reg 1 B MemWrite_o $end
$var reg 1 A MemtoReg_o $end
$var reg 1 @ RegWrite_o $end
$upscope $end
$scope module Data_Memory $end
$var wire 1 ! clk_i $end
$var wire 32 ~ data_o [31:0] $end
$var wire 32 !" data_i [31:0] $end
$var wire 32 "" addr_i [31:0] $end
$var wire 1 U MemWrite_i $end
$var wire 1 V MemRead_i $end
$upscope $end
$scope module EXMEM $end
$var wire 32 #" ALUResult_i [31:0] $end
$var wire 32 $" Reg2_i [31:0] $end
$var wire 1 ! clk_i $end
$var wire 1 ^ RegWrite_i $end
$var wire 5 %" Rd_i [4:0] $end
$var wire 1 b MemtoReg_i $end
$var wire 1 c MemWrite_i $end
$var wire 1 d MemRead_i $end
$var reg 32 &" ALUResult_o [31:0] $end
$var reg 32 '" DATAWr_o [31:0] $end
$var reg 1 V MemRead_o $end
$var reg 1 U MemWrite_o $end
$var reg 1 T MemtoReg_o $end
$var reg 5 (" Rd_o [4:0] $end
$var reg 1 S RegWrite_o $end
$upscope $end
$scope module FORWARD_UNIT $end
$var wire 5 )" MEMRd_i [4:0] $end
$var wire 1 - MEMRegWrite_i $end
$var wire 5 *" WBRd_i [4:0] $end
$var wire 1 / WBRegWrite_i $end
$var wire 5 +" Rs2_i [4:0] $end
$var wire 5 ," Rs1_i [4:0] $end
$var wire 2 -" Forward2_o [1:0] $end
$var wire 2 ." Forward1_o [1:0] $end
$upscope $end
$scope module HAZRD_DETECT_UNIT $end
$var wire 5 /" Rs1_i [4:0] $end
$var wire 5 0" Rs2_i [4:0] $end
$var wire 1 ; Stall_o $end
$var wire 1 O PCWrite_o $end
$var wire 1 9 NoOp_o $end
$var wire 1 d ID_EXRead_i $end
$var wire 5 1" EXRd_i [4:0] $end
$upscope $end
$scope module IDEX $end
$var wire 2 2" ALUOp_i [1:0] $end
$var wire 1 D ALUSrc_i $end
$var wire 1 C MemRead_i $end
$var wire 1 B MemWrite_i $end
$var wire 1 A MemtoReg_i $end
$var wire 5 3" Rd_i [4:0] $end
$var wire 1 @ RegWrite_i $end
$var wire 5 4" Rs1_i [4:0] $end
$var wire 5 5" Rs2_i [4:0] $end
$var wire 1 ! clk_i $end
$var wire 10 6" funct_i [9:0] $end
$var wire 32 7" Reg2_i [31:0] $end
$var wire 32 8" Reg1_i [31:0] $end
$var wire 32 9" Imm_i [31:0] $end
$var reg 2 :" ALUOp_o [1:0] $end
$var reg 1 e ALUSrc_o $end
$var reg 32 ;" Imm_o [31:0] $end
$var reg 1 d MemRead_o $end
$var reg 1 c MemWrite_o $end
$var reg 1 b MemtoReg_o $end
$var reg 5 <" Rd_o [4:0] $end
$var reg 32 =" Reg1_o [31:0] $end
$var reg 32 >" Reg2_o [31:0] $end
$var reg 1 ^ RegWrite_o $end
$var reg 5 ?" Rs1_o [4:0] $end
$var reg 5 @" Rs2_o [4:0] $end
$var reg 10 A" funct_o [9:0] $end
$upscope $end
$scope module IFID $end
$var wire 1 ; Stall_i $end
$var wire 1 ! clk_i $end
$var wire 32 B" PC_i [31:0] $end
$var wire 32 C" Inst_i [31:0] $end
$var wire 1 6 Flush_i $end
$var reg 32 D" Inst_o [31:0] $end
$var reg 32 E" PC_o [31:0] $end
$upscope $end
$scope module Instruction_Memory $end
$var wire 32 F" instr_o [31:0] $end
$var wire 32 G" addr_i [31:0] $end
$upscope $end
$scope module IsJunp $end
$var wire 1 < branch_i $end
$var wire 1 : equal_i $end
$var reg 1 6 branch_o $end
$upscope $end
$scope module MEMWB $end
$var wire 32 H" ALUResult_i [31:0] $end
$var wire 32 I" DATARd_i [31:0] $end
$var wire 1 T MemtoReg_i $end
$var wire 5 J" Rd_i [4:0] $end
$var wire 1 S RegWrite_i $end
$var wire 1 ! clk_i $end
$var reg 32 K" ALUResult_o [31:0] $end
$var reg 32 L" DATARd_o [31:0] $end
$var reg 1 L MemtoReg_o $end
$var reg 5 M" Rd_o [4:0] $end
$var reg 1 K RegWrite_o $end
$upscope $end
$scope module MUX32_4A $end
$var wire 32 N" ID_i [31:0] $end
$var wire 32 O" MEM_i [31:0] $end
$var wire 32 P" WB_i [31:0] $end
$var wire 2 Q" signal_i [1:0] $end
$var wire 32 R" data_o [31:0] $end
$upscope $end
$scope module MUX32_4B $end
$var wire 32 S" ID_i [31:0] $end
$var wire 32 T" MEM_i [31:0] $end
$var wire 32 U" WB_i [31:0] $end
$var wire 2 V" signal_i [1:0] $end
$var wire 32 W" data_o [31:0] $end
$upscope $end
$scope module MUX_ALUSrc $end
$var wire 32 X" data1_i [31:0] $end
$var wire 32 Y" data2_i [31:0] $end
$var wire 1 e select_i $end
$var reg 32 Z" data_o [31:0] $end
$upscope $end
$scope module PC $end
$var wire 1 O PCWrite_i $end
$var wire 1 ! clk_i $end
$var wire 1 " rst_i $end
$var wire 1 # start_i $end
$var wire 32 [" pc_i [31:0] $end
$var reg 32 \" pc_o [31:0] $end
$upscope $end
$scope module PC_MUX $end
$var wire 32 ]" data1_i [31:0] $end
$var wire 32 ^" data2_i [31:0] $end
$var wire 1 6 select_i $end
$var reg 32 _" data_o [31:0] $end
$upscope $end
$scope module RS1RS2 $end
$var wire 1 : equal_o $end
$var wire 32 `" data2_i [31:0] $end
$var wire 32 a" data1_i [31:0] $end
$upscope $end
$scope module Registers $end
$var wire 5 b" RDaddr_i [4:0] $end
$var wire 5 c" RS1addr_i [4:0] $end
$var wire 5 d" RS2addr_i [4:0] $end
$var wire 1 K RegWrite_i $end
$var wire 1 ! clk_i $end
$var wire 32 e" RS2data_o [31:0] $end
$var wire 32 f" RS1data_o [31:0] $end
$var wire 32 g" RDdata_i [31:0] $end
$upscope $end
$scope module Sign_Extender $end
$var wire 32 h" data_i [31:0] $end
$var reg 32 i" data_o [31:0] $end
$upscope $end
$scope module WB_MUX $end
$var wire 32 j" data1_i [31:0] $end
$var wire 32 k" data2_i [31:0] $end
$var wire 1 L select_i $end
$var reg 32 l" data_o [31:0] $end
$upscope $end
$upscope $end
$upscope $end
$enddefinitions $end
#0
$dumpvars
b0 l"
b0 k"
b0 j"
b0 i"
b0 h"
b0 g"
b0 f"
b0 e"
b0 d"
b0 c"
b0 b"
b0 a"
b0 `"
b100 _"
b0 ^"
b100 ]"
b0 \"
b100 ["
bx Z"
b0 Y"
bx X"
bx W"
b0 V"
b0 U"
bx T"
bx S"
bx R"
b0 Q"
b0 P"
bx O"
bx N"
b0 M"
b0 L"
b0 K"
b0 J"
b0 I"
bx H"
b0 G"
b11000000000010100010011 F"
b0 E"
b0 D"
b11000000000010100010011 C"
b0 B"
b0 A"
b0 @"
b0 ?"
bx >"
bx ="
b0 <"
b0 ;"
b0 :"
b0 9"
b0 8"
b0 7"
b0 6"
b0 5"
b0 4"
b0 3"
b0 2"
b0 1"
b0 0"
b0 /"
b0 ."
b0 -"
b0 ,"
b0 +"
b0 *"
b0 )"
b0 ("
bx '"
bx &"
b0 %"
bx $"
bx #"
bx ""
bx !"
b0 ~
b0 }
b0 |
b0 {
b0 z
b0 y
b0 x
b100 w
b100 v
b1000 u
b0 t
b0 s
bx r
bx q
bx p
b1000 o
bx n
bx m
b1000 l
bx k
bx j
bx i
b0 h
b0 g
b0 f
0e
0d
0c
0b
b0 a
bx `
bx _
0^
b0 ]
b0 \
b0 [
b0 Z
b0 Y
b0 X
bx W
0V
0U
0T
0S
bx R
b0 Q
bx P
1O
b0 N
b0 M
0L
0K
b0 J
b0 I
0H
b0 G
b0 F
b0 E
0D
0C
0B
0A
0@
b0 ?
b0 >
b11000000000010100010011 =
0<
0;
1:
09
b100 8
b100 7
06
b0 5
b0 4
b0 3
b0 2
b0 1
b0 0
0/
b0 .
0-
bx ,
bx +
bx *
bx )
b0 (
b101 '
b100000 &
b0 %
b0 $
0#
1"
1!
$end
#12
1#
0"
#25
0!
#50
1H
b0 i
b0 p
b0 #"
b0 j
b0 m
b0 Z"
b1100 G
b1100 z
b1100 ^"
b1100 F
b1100 y
b11 E
b11 }
b11 2"
1D
1@
bx 2
bx U"
bx 1
bx P"
bx I
bx g"
bx l"
b0 )
b0 $"
b0 P
b0 W"
b0 X"
b0 k
b0 n
b0 R"
b110 ?
b110 9"
b110 i"
b1010 3"
b110 5"
b110 d"
b10011 |
b110 0"
b100000000010110010011 =
b100000000010110010011 C"
b100000000010110010011 F"
b1000 7
b1000 ["
b1000 _"
bx N
bx K"
bx j"
b0 _
b0 >"
b0 S"
b0 `
b0 ="
b0 N"
b11000000000010100010011 X
b11000000000010100010011 D"
b11000000000010100010011 h"
b1000 8
b1000 w
b1000 ]"
b100 5
b100 x
b100 B"
b100 G"
b100 \"
b1 $
1!
#75
0!
#100
b10 F
b10 y
0H
b110 i
b110 p
b110 #"
b1 ?
b1 9"
b1 i"
b1011 3"
b1 5"
b1 d"
b1 0"
b110 j
b110 m
b110 Z"
b110 l
b110 o
b110 u
b100000000010010010011 =
b100000000010010010011 C"
b100000000010010010011 F"
b1100 7
b1100 ["
b1100 _"
b110 G
b110 z
b110 ^"
b100 Y
b100 {
b100 E"
b100000000010110010011 X
b100000000010110010011 D"
b100000000010110010011 h"
b1010 a
b1010 %"
b1010 1"
b1010 <"
b110 \
b110 +"
b110 @"
b110 >
b110 ;"
b110 Y"
1e
b11 f
b11 t
b11 :"
1^
b0 R
b0 !"
b0 '"
b0 +
b0 T"
b0 *
b0 O"
b0 ,
b0 H"
b0 W
b0 ""
b0 &"
b1100 8
b1100 w
b1100 ]"
b1000 5
b1000 x
b1000 B"
b1000 G"
b1000 \"
b10 $
1!
#125
0!
#150
b1 i
b1 p
b1 #"
b0 2
b0 U"
b0 1
b0 P"
b0 I
b0 g"
b0 l"
b1 j
b1 m
b1 Z"
b1001 3"
b10101101001000010010110011 =
b10101101001000010010110011 C"
b10101101001000010010110011 F"
b10000 7
b10000 ["
b10000 _"
b0 N
b0 K"
b0 j"
b110 +
b110 T"
b110 *
b110 O"
b110 ,
b110 H"
b110 W
b110 ""
b110 &"
b1010 .
b1010 )"
b1010 Q
b1010 ("
b1010 J"
1-
1S
b1011 a
b1011 %"
b1011 1"
b1011 <"
b1 \
b1 +"
b1 @"
b1 >
b1 ;"
b1 Y"
b1010 G
b1010 z
b1010 ^"
b1000 Y
b1000 {
b1000 E"
b100000000010010010011 X
b100000000010010010011 D"
b100000000010010010011 h"
b10000 8
b10000 w
b10000 ]"
b1100 5
b1100 x
b1100 B"
b1100 G"
b1100 \"
b11 $
1!
#175
0!
#200
b1010110 F
b1010110 y
b10 E
b10 }
b10 2"
0D
b101011 ?
b101011 9"
b101011 i"
b1011 5"
b1001 4"
b1000 6"
b1011 d"
b1001 c"
b110011 |
b1011 0"
b1001 /"
b110 2
b110 U"
b110 1
b110 P"
b110 I
b110 g"
b110 l"
b101011000010110010011 =
b101011000010110010011 C"
b101011000010110010011 F"
b10100 7
b10100 ["
b10100 _"
b1100010 G
b1100010 z
b1100010 ^"
b1100 Y
b1100 {
b1100 E"
b10101101001000010010110011 X
b10101101001000010010110011 D"
b10101101001000010010110011 h"
b1001 a
b1001 %"
b1001 1"
b1001 <"
b1 +
b1 T"
b1 *
b1 O"
b1 ,
b1 H"
b1 W
b1 ""
b1 &"
b1011 .
b1011 )"
b1011 Q
b1011 ("
b1011 J"
b1010 0
b1010 *"
b1010 J
b1010 M"
b1010 b"
b110 N
b110 K"
b110 j"
1/
1K
b10100 8
b10100 w
b10100 ]"
b10000 5
b10000 x
b10000 B"
b10000 G"
b10000 \"
b100 $
1!
#225
0!
#250
b1 )
b1 $"
b1 P
b1 W"
b1 X"
b1 Z
b1 -"
b1 V"
b1 k
b1 n
b1 R"
0:
b10 [
b10 ."
b10 Q"
b1 4
b1 8"
b1 a"
b1 f"
1H
b1 i
b1 p
b1 #"
b10 F
b10 y
b11 E
b11 }
b11 2"
1D
b1 2
b1 U"
b1 1
b1 P"
b1 I
b1 g"
b1 l"
b1 j
b1 m
b1 Z"
b101 l
b101 o
b101 u
b1 ?
b1 9"
b1 i"
b1011 3"
b1 5"
b1011 4"
b0 6"
b1 d"
b1011 c"
b10011 |
b1 0"
b1011 /"
b1011000111000010011 =
b1011000111000010011 C"
b1011000111000010011 F"
b11000 7
b11000 ["
b11000 _"
b1011 0
b1011 *"
b1011 J
b1011 M"
b1011 b"
b1 N
b1 K"
b1 j"
b1001 .
b1001 )"
b1001 Q
b1001 ("
b1001 J"
b1011 \
b1011 +"
b1011 @"
b1001 ]
b1001 ,"
b1001 ?"
b1000 g
b1000 s
b1000 A"
b101011 >
b101011 ;"
b101011 Y"
0e
b10 f
b10 t
b10 :"
b10010 G
b10010 z
b10010 ^"
b10000 Y
b10000 {
b10000 E"
b101011000010110010011 X
b101011000010110010011 D"
b101011000010110010011 h"
b11000 8
b11000 w
b11000 ]"
b10100 5
b10100 x
b10100 B"
b10100 G"
b10100 \"
b101 $
1!
#275
0!
#300
b0 )
b0 $"
b0 P
b0 W"
b0 X"
b0 Z
b0 -"
b0 V"
b0 [
b0 ."
b0 Q"
b0 F
b0 y
b10 i
b10 p
b10 #"
b0 ?
b0 9"
b0 i"
b11100 3"
b0 5"
b0 d"
b0 0"
b110 l
b110 o
b110 u
b11111111111101011000111010010011 =
b11111111111101011000111010010011 C"
b11111111111101011000111010010011 F"
b11100 7
b11100 ["
b11100 _"
b10100 G
b10100 z
b10100 ^"
b10100 Y
b10100 {
b10100 E"
b1011000111000010011 X
b1011000111000010011 D"
b1011000111000010011 h"
b1011 a
b1011 %"
b1011 1"
b1011 <"
b1 \
b1 +"
b1 @"
b1011 ]
b1011 ,"
b1011 ?"
b0 g
b0 s
b0 A"
b1 >
b1 ;"
b1 Y"
b1 `
b1 ="
b1 N"
1e
b11 f
b11 t
b11 :"
b1 R
b1 !"
b1 '"
b1001 0
b1001 *"
b1001 J
b1001 M"
b1001 b"
b11100 8
b11100 w
b11100 ]"
b11000 5
b11000 x
b11000 B"
b11000 G"
b11000 \"
b110 $
1!
#325
0!
#350
b10 k
b10 n
b10 R"
b10 [
b10 ."
b10 Q"
0H
b10 i
b10 p
b10 #"
b11111111111111111111111111111110 F
b11111111111111111111111111111110 y
b0 j
b0 m
b0 Z"
b11111111111111111111111111111111 ?
b11111111111111111111111111111111 9"
b11111111111111111111111111111111 i"
b11101 3"
b11111 5"
b1111111000 6"
b11111 d"
b11111 0"
b11111111111001011000111100010011 =
b11111111111001011000111100010011 C"
b11111111111001011000111100010011 F"
b100000 7
b100000 ["
b100000 _"
b0 R
b0 !"
b0 '"
b10 +
b10 T"
b10 *
b10 O"
b10 ,
b10 H"
b10 W
b10 ""
b10 &"
b1011 .
b1011 )"
b1011 Q
b1011 ("
b1011 J"
b11100 a
b11100 %"
b11100 1"
b11100 <"
b0 \
b0 +"
b0 @"
b0 >
b0 ;"
b0 Y"
b10110 G
b10110 z
b10110 ^"
b11000 Y
b11000 {
b11000 E"
b11111111111101011000111010010011 X
b11111111111101011000111010010011 D"
b11111111111101011000111010010011 h"
b100000 8
b100000 w
b100000 ]"
b11100 5
b11100 x
b11100 B"
b11100 G"
b11100 \"
b111 $
1!
#375
0!
#400
b1 [
b1 ."
b1 Q"
b11111111111111111111111111111100 F
b11111111111111111111111111111100 y
b1 i
b1 p
b1 #"
b10 4
b10 8"
b10 a"
b10 f"
b11111111111111111111111111111110 ?
b11111111111111111111111111111110 9"
b11111111111111111111111111111110 i"
b11110 3"
b11110 5"
b11110 d"
b11110 0"
b11111111111111111111111111111111 j
b11111111111111111111111111111111 m
b11111111111111111111111111111111 Z"
b10 2
b10 U"
b10 1
b10 P"
b10 I
b10 g"
b10 l"
b101101010000010001100011 =
b101101010000010001100011 C"
b101101010000010001100011 F"
b100100 7
b100100 ["
b100100 _"
b11000 G
b11000 z
b11000 ^"
b11100 Y
b11100 {
b11100 E"
b11111111111001011000111100010011 X
b11111111111001011000111100010011 D"
b11111111111001011000111100010011 h"
b11101 a
b11101 %"
b11101 1"
b11101 <"
b11111 \
b11111 +"
b11111 @"
b1111111000 g
b1111111000 s
b1111111000 A"
b11111111111111111111111111111111 >
b11111111111111111111111111111111 ;"
b11111111111111111111111111111111 Y"
b11100 .
b11100 )"
b11100 Q
b11100 ("
b11100 J"
b1011 0
b1011 *"
b1011 J
b1011 M"
b1011 b"
b10 N
b10 K"
b10 j"
b100100 8
b100100 w
b100100 ]"
b100000 5
b100000 x
b100000 B"
b100000 G"
b100000 \"
b1000 $
1!
#425
0!
#450
b0 [
b0 ."
b0 Q"
b110 4
b110 8"
b110 a"
b110 f"
b0 i
b0 p
b0 #"
b1000 F
b1000 y
b10 3
b10 7"
b10 `"
b10 e"
1<
b1 E
b1 }
b1 2"
0@
b11111111111111111111111111111110 j
b11111111111111111111111111111110 m
b11111111111111111111111111111110 Z"
b100 ?
b100 9"
b100 i"
b1000 3"
b1011 5"
b1010 4"
b0 6"
b1011 d"
b1010 c"
b1100011 |
b1011 0"
b1010 /"
b11111110000000000000010011100011 =
b11111110000000000000010011100011 C"
b11111110000000000000010011100011 F"
b101000 7
b101000 ["
b101000 _"
b11100 0
b11100 *"
b11100 J
b11100 M"
b11100 b"
b1 +
b1 T"
b1 *
b1 O"
b1 ,
b1 H"
b1 W
b1 ""
b1 &"
b11101 .
b11101 )"
b11101 Q
b11101 ("
b11101 J"
b11110 a
b11110 %"
b11110 1"
b11110 <"
b11110 \
b11110 +"
b11110 @"
b11111111111111111111111111111110 >
b11111111111111111111111111111110 ;"
b11111111111111111111111111111110 Y"
b10 `
b10 ="
b10 N"
b101000 G
b101000 z
b101000 ^"
b100000 Y
b100000 {
b100000 E"
b101101010000010001100011 X
b101101010000010001100011 D"
b101101010000010001100011 h"
b101000 8
b101000 w
b101000 ]"
b100100 5
b100100 x
b100100 B"
b100100 G"
b100100 \"
b1001 $
1!
#475
0!
#500
16
1:
b11111111111111111111111111101000 F
b11111111111111111111111111101000 y
b0 3
b0 7"
b0 `"
b0 e"
b0 4
b0 8"
b0 a"
b0 f"
b10 i
b10 p
b10 #"
b11111111111111111111111111110100 ?
b11111111111111111111111111110100 9"
b11111111111111111111111111110100 i"
b1001 3"
b0 5"
b0 4"
b1111111000 6"
b0 d"
b0 c"
b0 0"
b0 /"
b100 j
b100 m
b100 Z"
b10 )
b10 $"
b10 P
b10 W"
b10 X"
b110 k
b110 n
b110 R"
b1001 l
b1001 o
b1001 u
b1 2
b1 U"
b1 1
b1 P"
b1 I
b1 g"
b1 l"
b100100000010001000100011 =
b100100000010001000100011 C"
b100100000010001000100011 F"
b1100 7
b1100 ["
b1100 _"
b1100 G
b1100 z
b1100 ^"
b100100 Y
b100100 {
b100100 E"
b11111110000000000000010011100011 X
b11111110000000000000010011100011 D"
b11111110000000000000010011100011 h"
b1000 a
b1000 %"
b1000 1"
b1000 <"
b1011 \
b1011 +"
b1011 @"
b1010 ]
b1010 ,"
b1010 ?"
b0 g
b0 s
b0 A"
b100 >
b100 ;"
b100 Y"
b10 _
b10 >"
b10 S"
b110 `
b110 ="
b110 N"
b1 f
b1 t
b1 :"
0^
b0 +
b0 T"
b0 *
b0 O"
b0 ,
b0 H"
b0 W
b0 ""
b0 &"
b11110 .
b11110 )"
b11110 Q
b11110 ("
b11110 J"
b11101 0
b11101 *"
b11101 J
b11101 M"
b11101 b"
b1 N
b1 K"
b1 j"
b101100 8
b101100 w
b101100 ]"
b101000 5
b101000 x
b101000 B"
b101000 G"
b101000 \"
b1010 $
1!
#525
0!
#550
06
b1100 i
b1100 p
b1100 #"
b0 F
b0 y
0<
b0 E
b0 }
b0 2"
0D
b0 2
b0 U"
b0 1
b0 P"
b0 I
b0 g"
b0 l"
b11111111111111111111111111110100 j
b11111111111111111111111111110100 m
b11111111111111111111111111110100 Z"
b0 )
b0 $"
b0 P
b0 W"
b0 X"
b0 k
b0 n
b0 R"
b0 ?
b0 9"
b0 i"
b0 3"
b0 6"
b0 |
b10101101001000010010110011 =
b10101101001000010010110011 C"
b10101101001000010010110011 F"
b10000 7
b10000 ["
b10000 _"
b11110 0
b11110 *"
b11110 J
b11110 M"
b11110 b"
b0 N
b0 K"
b0 j"
b10 R
b10 !"
b10 '"
b10 +
b10 T"
b10 *
b10 O"
b10 ,
b10 H"
b10 W
b10 ""
b10 &"
b1000 .
b1000 )"
b1000 Q
b1000 ("
b1000 J"
0-
0S
b1001 a
b1001 %"
b1001 1"
b1001 <"
b0 \
b0 +"
b0 @"
b0 ]
b0 ,"
b0 ?"
b1111111000 g
b1111111000 s
b1111111000 A"
b11111111111111111111111111110100 >
b11111111111111111111111111110100 ;"
b11111111111111111111111111110100 Y"
b0 _
b0 >"
b0 S"
b0 `
b0 ="
b0 N"
b101000 G
b101000 z
b101000 ^"
b101000 Y
b101000 {
b101000 E"
b0 X
b0 D"
b0 h"
b10000 8
b10000 w
b10000 ]"
b1100 5
b1100 x
b1100 B"
b1100 G"
b1100 \"
b1011 $
b1 %
1!
#575
0!
#600
0:
b1010110 F
b1010110 y
b10 3
b10 7"
b10 `"
b10 e"
b1 4
b1 8"
b1 a"
b1 f"
b10 E
b10 }
b10 2"
1@
1H
b0 i
b0 p
b0 #"
b101011 ?
b101011 9"
b101011 i"
b1001 3"
b1011 5"
b1001 4"
b1000 6"
b1011 d"
b1001 c"
b110011 |
b1011 0"
b1001 /"
b0 j
b0 m
b0 Z"
b1000 l
b1000 o
b1000 u
b10 2
b10 U"
b10 1
b10 P"
b10 I
b10 g"
b10 l"
b101011000010110010011 =
b101011000010110010011 C"
b101011000010110010011 F"
b10100 7
b10100 ["
b10100 _"
b1100010 G
b1100010 z
b1100010 ^"
b1100 Y
b1100 {
b1100 E"
b10101101001000010010110011 X
b10101101001000010010110011 D"
b10101101001000010010110011 h"
b0 a
b0 %"
b0 1"
b0 <"
b0 g
b0 s
b0 A"
b0 >
b0 ;"
b0 Y"
0e
b0 f
b0 t
b0 :"
b0 R
b0 !"
b0 '"
b1100 +
b1100 T"
b1100 *
b1100 O"
b1100 ,
b1100 H"
b1100 W
b1100 ""
b1100 &"
b1001 .
b1001 )"
b1001 Q
b1001 ("
b1001 J"
b1000 0
b1000 *"
b1000 J
b1000 M"
b1000 b"
b10 N
b10 K"
b10 j"
0/
0K
b10100 8
b10100 w
b10100 ]"
b10000 5
b10000 x
b10000 B"
b10000 G"
b10000 \"
b1100 $
1!
#625
0!
#650
0H
b10 i
b10 p
b10 #"
b10 F
b10 y
b0 3
b0 7"
b0 `"
b0 e"
b10 4
b10 8"
b10 a"
b10 f"
b11 E
b11 }
b11 2"
1D
b1100 2
b1100 U"
b1100 1
b1100 P"
b1100 I
b1100 g"
b1100 l"
b10 j
b10 m
b10 Z"
b10 )
b10 $"
b10 P
b10 W"
b10 X"
b1 k
b1 n
b1 R"
b101 l
b101 o
b101 u
b1 ?
b1 9"
b1 i"
b1011 3"
b1 5"
b1011 4"
b0 6"
b1 d"
b1011 c"
b10011 |
b1 0"
b1011 /"
b1011000111000010011 =
b1011000111000010011 C"
b1011000111000010011 F"
b11000 7
b11000 ["
b11000 _"
b1001 0
b1001 *"
b1001 J
b1001 M"
b1001 b"
b1100 N
b1100 K"
b1100 j"
b0 +
b0 T"
b0 *
b0 O"
b0 ,
b0 H"
b0 W
b0 ""
b0 &"
b0 .
b0 )"
b0 Q
b0 ("
b0 J"
b1001 a
b1001 %"
b1001 1"
b1001 <"
b1011 \
b1011 +"
b1011 @"
b1001 ]
b1001 ,"
b1001 ?"
b1000 g
b1000 s
b1000 A"
b101011 >
b101011 ;"
b101011 Y"
b10 _
b10 >"
b10 S"
b1 `
b1 ="
b1 N"
b10 f
b10 t
b10 :"
1^
b10010 G
b10010 z
b10010 ^"
b10000 Y
b10000 {
b10000 E"
b101011000010110010011 X
b101011000010110010011 D"
b101011000010110010011 h"
b11000 8
b11000 w
b11000 ]"
b10100 5
b10100 x
b10100 B"
b10100 G"
b10100 \"
b1101 $
1!
#675
0!
