code/CPU.vcd
$date
	Thu Dec 10 10:22:47 2020
$end
$version
	Icarus Verilog
$end
$timescale
	1s
$end
$scope module TestBench $end
$var reg 1 ! Clk $end
$var reg 1 " Reset $end
$var reg 1 # Start $end
$var integer 32 $ counter [31:0] $end
$var integer 32 % flush [31:0] $end
$var integer 32 & i [31:0] $end
$var integer 32 ' outfile [31:0] $end
$var integer 32 ( stall [31:0] $end
$scope module CPU $end
$var wire 32 ) EXMEM_reg2_in [31:0] $end
$var wire 32 * MEM_ALU_RES_2_MUXA [31:0] $end
$var wire 32 + MEM_ALU_RES_2_MUXB [31:0] $end
$var wire 32 , MEM_ALU_RES_AS_OUT [31:0] $end
$var wire 1 - MEM_RegWrite_2_FORWARD $end
$var wire 5 . MEM_rd_2_FORWARD [4:0] $end
$var wire 1 / WB_RegWrite_2_FORWARD $end
$var wire 5 0 WB_rd_out_2_FORWARD [4:0] $end
$var wire 32 1 WB_result_2_MUXA [31:0] $end
$var wire 32 2 WB_result_2_MUXB [31:0] $end
$var wire 1 ! clk_i $end
$var wire 1 " rst_i $end
$var wire 1 # start_i $end
$var wire 32 3 rd2 [31:0] $end
$var wire 32 4 rd1 [31:0] $end
$var wire 32 5 pc_out [31:0] $end
$var wire 1 6 pc_mux_select $end
$var wire 32 7 pc_in [31:0] $end
$var wire 32 8 pc4_adder_out [31:0] $end
$var wire 1 9 noOp $end
$var wire 1 : isZero $end
$var wire 1 ; isStall $end
$var wire 1 < isBranch $end
$var wire 32 = instruction [31:0] $end
$var wire 32 > immediates [31:0] $end
$var wire 32 ? extend_res [31:0] $end
$var wire 1 @ control_2_idex_RegWrite $end
$var wire 1 A control_2_idex_MemtoReg $end
$var wire 1 B control_2_idex_MemWrite $end
$var wire 1 C control_2_idex_MemRead $end
$var wire 1 D control_2_idex_ALUSrc $end
$var wire 2 E control_2_idex_ALUOp [1:0] $end
$var wire 32 F branch_shift_immediates [31:0] $end
$var wire 32 G branch_pc_out [31:0] $end
$var wire 1 H Ze $end
$var wire 32 I WB_result [31:0] $end
$var wire 5 J WB_rd_out [4:0] $end
$var wire 1 K WB_RegWrite $end
$var wire 1 L WB_MemtoReg $end
$var wire 32 M WB_MUX_rs2 [31:0] $end
$var wire 32 N WB_MUX_rs1 [31:0] $end
$var wire 1 O PCWrite $end
$var wire 32 P MUXB_out [31:0] $end
$var wire 5 Q MEM_rd [4:0] $end
$var wire 32 R MEM_WrData [31:0] $end
$var wire 1 S MEM_RegWrite $end
$var wire 1 T MEM_MemtoReg $end
$var wire 1 U MEM_MemWrite $end
$var wire 1 V MEM_MemRead $end
$var wire 32 W MEM_ALU_RES_AS_ADDRESS [31:0] $end
$var wire 32 X Instruction [31:0] $end
$var wire 32 Y ID_PC [31:0] $end
$var wire 2 Z ForwardB [1:0] $end
$var wire 2 [ ForwardA [1:0] $end
$var wire 5 \ EX_Rs2 [4:0] $end
$var wire 5 ] EX_Rs1 [4:0] $end
$var wire 1 ^ EX_RegWrite $end
$var wire 32 _ EX_Rdata2 [31:0] $end
$var wire 32 ` EX_Rdata1 [31:0] $end
$var wire 5 a EX_Rd [4:0] $end
$var wire 1 b EX_MemtoReg $end
$var wire 1 c EX_MemWrite $end
$var wire 1 d EX_MemRead $end
$var wire 1 e EX_ALUSrc $end
$var wire 2 f EX_ALUOp [1:0] $end
$var wire 10 g EX_ALUCtrl [9:0] $end
$var wire 32 h DM_out [31:0] $end
$var wire 32 i ALU_out [31:0] $end
$var wire 32 j ALU_IN2 [31:0] $end
$var wire 32 k ALU_IN1 [31:0] $end
$var wire 4 l ALUCtrl_out [3:0] $end
$scope module ALU $end
$var wire 32 m data2_i [31:0] $end
$var wire 32 n data1_i [31:0] $end
$var wire 4 o ALUCtrl_i [3:0] $end
$var reg 1 H Zero_o $end
$var reg 32 p data_o [31:0] $end
$var reg 5 q shift_left_num [4:0] $end
$var reg 5 r shift_right_num [4:0] $end
$upscope $end
$scope module ALU_Control $end
$var wire 10 s funct_i [9:0] $end
$var wire 2 t ALUOp_i [1:0] $end
$var reg 4 u ALUCtrl_o [3:0] $end
$upscope $end
$scope module Add4_2PC $end
$var wire 32 v data2_in [31:0] $end
$var wire 32 w data_o [31:0] $end
$var wire 32 x data1_in [31:0] $end
$upscope $end
$scope module Add_PC_Branch $end
$var wire 32 y data2_in [31:0] $end
$var wire 32 z data_o [31:0] $end
$var wire 32 { data1_in [31:0] $end
$upscope $end
$scope module Control $end
$var wire 7 | op_i [6:0] $end
$var wire 1 9 NoOp_i $end
$var reg 2 } ALUOp_o [1:0] $end
$var reg 1 D ALUSrc_o $end
$var reg 1 < Branch_o $end
$var reg 1 C MemRead_o $end
$var reg 1 B MemWrite_o $end
$var reg 1 A MemtoReg_o $end
$var reg 1 @ RegWrite_o $end
$upscope $end
$scope module Data_Memory $end
$var wire 1 ! clk_i $end
$var wire 32 ~ data_o [31:0] $end
$var wire 32 !" data_i [31:0] $end
$var wire 32 "" addr_i [31:0] $end
$var wire 1 U MemWrite_i $end
$var wire 1 V MemRead_i $end
$upscope $end
$scope module EXMEM $end
$var wire 32 #" ALUResult_i [31:0] $end
$var wire 32 $" Reg2_i [31:0] $end
$var wire 1 ! clk_i $end
$var wire 1 ^ RegWrite_i $end
$var wire 5 %" Rd_i [4:0] $end
$var wire 1 b MemtoReg_i $end
$var wire 1 c MemWrite_i $end
$var wire 1 d MemRead_i $end
$var reg 32 &" ALUResult_o [31:0] $end
$var reg 32 '" DATAWr_o [31:0] $end
$var reg 1 V MemRead_o $end
$var reg 1 U MemWrite_o $end
$var reg 1 T MemtoReg_o $end
$var reg 5 (" Rd_o [4:0] $end
$var reg 1 S RegWrite_o $end
$upscope $end
$scope module FORWARD_UNIT $end
$var wire 5 )" MEMRd_i [4:0] $end
$var wire 1 - MEMRegWrite_i $end
$var wire 5 *" WBRd_i [4:0] $end
$var wire 1 / WBRegWrite_i $end
$var wire 5 +" Rs2_i [4:0] $end
$var wire 5 ," Rs1_i [4:0] $end
$var wire 2 -" Forward2_o [1:0] $end
$var wire 2 ." Forward1_o [1:0] $end
$upscope $end
$scope module HAZRD_DETECT_UNIT $end
$var wire 1 V EX_MEMRead_i $end
$var wire 5 /" Rs1_i [4:0] $end
$var wire 5 0" Rs2_i [4:0] $end
$var wire 1 ; Stall_o $end
$var wire 1 O PCWrite_o $end
$var wire 1 9 NoOp_o $end
$var wire 5 1" EXRd_i [4:0] $end
$upscope $end
$scope module IDEX $end
$var wire 2 2" ALUOp_i [1:0] $end
$var wire 1 D ALUSrc_i $end
$var wire 1 C MemRead_i $end
$var wire 1 B MemWrite_i $end
$var wire 1 A MemtoReg_i $end
$var wire 5 3" Rd_i [4:0] $end
$var wire 1 @ RegWrite_i $end
$var wire 5 4" Rs1_i [4:0] $end
$var wire 5 5" Rs2_i [4:0] $end
$var wire 1 ! clk_i $end
$var wire 10 6" funct_i [9:0] $end
$var wire 32 7" Reg2_i [31:0] $end
$var wire 32 8" Reg1_i [31:0] $end
$var wire 32 9" Imm_i [31:0] $end
$var reg 2 :" ALUOp_o [1:0] $end
$var reg 1 e ALUSrc_o $end
$var reg 32 ;" Imm_o [31:0] $end
$var reg 1 d MemRead_o $end
$var reg 1 c MemWrite_o $end
$var reg 1 b MemtoReg_o $end
$var reg 5 <" Rd_o [4:0] $end
$var reg 32 =" Reg1_o [31:0] $end
$var reg 32 >" Reg2_o [31:0] $end
$var reg 1 ^ RegWrite_o $end
$var reg 5 ?" Rs1_o [4:0] $end
$var reg 5 @" Rs2_o [4:0] $end
$var reg 10 A" funct_o [9:0] $end
$upscope $end
$scope module IFID $end
$var wire 1 ; Stall_i $end
$var wire 1 ! clk_i $end
$var wire 32 B" PC_i [31:0] $end
$var wire 32 C" Inst_i [31:0] $end
$var wire 1 6 Flush_i $end
$var reg 32 D" Inst_o [31:0] $end
$var reg 32 E" PC_o [31:0] $end
$upscope $end
$scope module Instruction_Memory $end
$var wire 32 F" instr_o [31:0] $end
$var wire 32 G" addr_i [31:0] $end
$upscope $end
$scope module IsJunp $end
$var wire 1 < branch_i $end
$var wire 1 : equal_i $end
$var reg 1 6 branch_o $end
$upscope $end
$scope module MEMWB $end
$var wire 32 H" ALUResult_i [31:0] $end
$var wire 32 I" DATARd_i [31:0] $end
$var wire 1 T MemtoReg_i $end
$var wire 5 J" Rd_i [4:0] $end
$var wire 1 S RegWrite_i $end
$var wire 1 ! clk_i $end
$var reg 32 K" ALUResult_o [31:0] $end
$var reg 32 L" DATARd_o [31:0] $end
$var reg 1 L MemtoReg_o $end
$var reg 5 M" Rd_o [4:0] $end
$var reg 1 K RegWrite_o $end
$upscope $end
$scope module MUX32_4A $end
$var wire 32 N" ID_i [31:0] $end
$var wire 32 O" MEM_i [31:0] $end
$var wire 32 P" WB_i [31:0] $end
$var wire 2 Q" signal_i [1:0] $end
$var wire 32 R" data_o [31:0] $end
$upscope $end
$scope module MUX32_4B $end
$var wire 32 S" ID_i [31:0] $end
$var wire 32 T" MEM_i [31:0] $end
$var wire 32 U" WB_i [31:0] $end
$var wire 2 V" signal_i [1:0] $end
$var wire 32 W" data_o [31:0] $end
$upscope $end
$scope module MUX_ALUSrc $end
$var wire 32 X" data1_i [31:0] $end
$var wire 32 Y" data2_i [31:0] $end
$var wire 1 e select_i $end
$var reg 32 Z" data_o [31:0] $end
$upscope $end
$scope module PC $end
$var wire 1 O PCWrite_i $end
$var wire 1 ! clk_i $end
$var wire 1 " rst_i $end
$var wire 1 # start_i $end
$var wire 32 [" pc_i [31:0] $end
$var reg 32 \" pc_o [31:0] $end
$upscope $end
$scope module PC_MUX $end
$var wire 32 ]" data1_i [31:0] $end
$var wire 32 ^" data2_i [31:0] $end
$var wire 1 6 select_i $end
$var reg 32 _" data_o [31:0] $end
$upscope $end
$scope module RS1RS2 $end
$var wire 1 : equal_o $end
$var wire 32 `" data2_i [31:0] $end
$var wire 32 a" data1_i [31:0] $end
$upscope $end
$scope module Registers $end
$var wire 5 b" RDaddr_i [4:0] $end
$var wire 5 c" RS1addr_i [4:0] $end
$var wire 5 d" RS2addr_i [4:0] $end
$var wire 1 K RegWrite_i $end
$var wire 1 ! clk_i $end
$var wire 32 e" RS2data_o [31:0] $end
$var wire 32 f" RS1data_o [31:0] $end
$var wire 32 g" RDdata_i [31:0] $end
$upscope $end
$scope module Sign_Extender $end
$var wire 32 h" data_i [31:0] $end
$var reg 32 i" data_o [31:0] $end
$upscope $end
$scope module WB_MUX $end
$var wire 32 j" data1_i [31:0] $end
$var wire 32 k" data2_i [31:0] $end
$var wire 1 L select_i $end
$var reg 32 l" data_o [31:0] $end
$upscope $end
$upscope $end
$upscope $end
$enddefinitions $end
#0
$dumpvars
b0 l"
b0 k"
b0 j"
b0 i"
b0 h"
b0 g"
b0 f"
b0 e"
b0 d"
b0 c"
b0 b"
b0 a"
b0 `"
b100 _"
b0 ^"
b100 ]"
b0 \"
b100 ["
bx Z"
b0 Y"
bx X"
bx W"
b0 V"
b0 U"
bx T"
bx S"
bx R"
b0 Q"
b0 P"
bx O"
bx N"
b0 M"
b0 L"
b0 K"
b0 J"
b0 I"
bx H"
b0 G"
b101000000000001100010011 F"
b0 E"
b0 D"
b101000000000001100010011 C"
b0 B"
b0 A"
b0 @"
b0 ?"
bx >"
bx ="
b0 <"
b0 ;"
b0 :"
b0 9"
b0 8"
b0 7"
b0 6"
b0 5"
b0 4"
b0 3"
b0 2"
b0 1"
b0 0"
b0 /"
b0 ."
b0 -"
b0 ,"
b0 +"
b0 *"
b0 )"
b0 ("
bx '"
bx &"
b0 %"
bx $"
bx #"
bx ""
bx !"
b0 ~
b0 }
b0 |
b0 {
b0 z
b0 y
b0 x
b100 w
b100 v
b1000 u
b0 t
b0 s
bx r
bx q
bx p
b1000 o
bx n
bx m
b1000 l
bx k
bx j
bx i
b0 h
b0 g
b0 f
0e
0d
0c
0b
b0 a
bx `
bx _
0^
b0 ]
b0 \
b0 [
b0 Z
b0 Y
b0 X
bx W
0V
0U
0T
0S
bx R
b0 Q
bx P
1O
b0 N
b0 M
0L
0K
b0 J
b0 I
0H
b0 G
b0 F
b0 E
0D
0C
0B
0A
0@
b0 ?
b0 >
b101000000000001100010011 =
0<
0;
0:
09
b100 8
b100 7
06
b0 5
b0 4
b0 3
b0 2
b0 1
b0 0
0/
b0 .
0-
bx ,
bx +
bx *
bx )
b0 (
b101 '
b100000 &
b0 %
b0 $
0#
1"
1!
$end
#12
1#
0"
#25
0!
#50
1H
b0 i
b0 p
b0 #"
b0 j
b0 m
b0 Z"
b10100 G
b10100 z
b10100 ^"
b10100 F
b10100 y
b11 E
b11 }
b11 2"
1D
1@
bx 2
bx U"
bx 1
bx P"
bx I
bx g"
bx l"
b0 )
b0 $"
b0 P
b0 W"
b0 X"
b0 k
b0 n
b0 R"
b1010 ?
b1010 9"
b1010 i"
b110 3"
b1010 5"
b1010 d"
b10011 |
b1010 0"
b11000110000001100110011 =
b11000110000001100110011 C"
b11000110000001100110011 F"
b1000 7
b1000 ["
b1000 _"
bx N
bx K"
bx j"
b0 _
b0 >"
b0 S"
b0 `
b0 ="
b0 N"
b101000000000001100010011 X
b101000000000001100010011 D"
b101000000000001100010011 h"
b1000 8
b1000 w
b1000 ]"
b100 5
b100 x
b100 B"
b100 G"
b100 \"
b1 $
1!
#75
0!
#100
b1100 F
b1100 y
b10 E
b10 }
b10 2"
0D
0H
b1010 i
b1010 p
b1010 #"
b110 ?
b110 9"
b110 i"
b110 5"
b110 4"
b110 d"
b110 c"
b110011 |
b110 0"
b110 /"
b1010 j
b1010 m
b1010 Z"
b110 l
b110 o
b110 u
b1100 7
b1100 ["
b1100 _"
b10000 G
b10000 z
b10000 ^"
b100 Y
b100 {
b100 E"
b11000110000001100110011 X
b11000110000001100110011 D"
b11000110000001100110011 h"
b110 a
b110 %"
b110 1"
b110 <"
b1010 \
b1010 +"
b1010 @"
b1010 >
b1010 ;"
b1010 Y"
1e
b11 f
b11 t
b11 :"
1^
b0 R
b0 !"
b0 '"
b0 +
b0 T"
b0 *
b0 O"
b0 ,
b0 H"
b0 W
b0 ""
b0 &"
b1100 8
b1100 w
b1100 ]"
b1000 5
b1000 x
b1000 B"
b1000 G"
b1000 \"
b10 $
1!
#125
0!
#150
b1010 k
b1010 n
b1010 R"
b1010 )
b1010 $"
b1010 P
b1010 W"
b1010 X"
b10 [
b10 ."
b10 Q"
b10 Z
b10 -"
b10 V"
1H
b10100 i
b10100 p
b10100 #"
b0 2
b0 U"
b0 1
b0 P"
b0 I
b0 g"
b0 l"
b1010 j
b1010 m
b1010 Z"
b11 l
b11 o
b11 u
b10000 7
b10000 ["
b10000 _"
b0 N
b0 K"
b0 j"
b1010 +
b1010 T"
b1010 *
b1010 O"
b1010 ,
b1010 H"
b1010 W
b1010 ""
b1010 &"
b110 .
b110 )"
b110 Q
b110 ("
b110 J"
1-
1S
b110 \
b110 +"
b110 @"
b110 ]
b110 ,"
b110 ?"
b110 >
b110 ;"
b110 Y"
0e
b10 f
b10 t
b10 :"
b10100 G
b10100 z
b10100 ^"
b1000 Y
b1000 {
b1000 E"
b10000 8
b10000 w
b10000 ]"
b1100 5
b1100 x
b1100 B"
b1100 G"
b1100 \"
b11 $
1!
#175
0!
#200
1:
b10100 j
b10100 m
b10100 Z"
1H
b101000 i
b101000 p
b101000 #"
b10100 )
b10100 $"
b10100 P
b10100 W"
b10100 X"
b10100 k
b10100 n
b10100 R"
b1010 4
b1010 8"
b1010 a"
b1010 f"
b1010 3
b1010 7"
b1010 `"
b1010 e"
b1010 2
b1010 U"
b1010 1
b1010 P"
b1010 I
b1010 g"
b1010 l"
b10100 7
b10100 ["
b10100 _"
b11000 G
b11000 z
b11000 ^"
b1100 Y
b1100 {
b1100 E"
b1010 R
b1010 !"
b1010 '"
b10100 +
b10100 T"
b10100 *
b10100 O"
b10100 ,
b10100 H"
b10100 W
b10100 ""
b10100 &"
b110 0
b110 *"
b110 J
b110 M"
b110 b"
b1010 N
b1010 K"
b1010 j"
1/
1K
b10100 8
b10100 w
b10100 ]"
b10000 5
b10000 x
b10000 B"
b10000 G"
b10000 \"
b100 $
1!
#225
0!
#250
b101000 j
b101000 m
b101000 Z"
1H
b1010000 i
b1010000 p
b1010000 #"
b10100 3
b10100 7"
b10100 `"
b10100 e"
b10100 4
b10100 8"
b10100 a"
b10100 f"
b101000 )
b101000 $"
b101000 P
b101000 W"
b101000 X"
b101000 k
b101000 n
b101000 R"
b10100 2
b10100 U"
b10100 1
b10100 P"
b10100 I
b10100 g"
b10100 l"
b11111111000000110000001110010011 =
b11111111000000110000001110010011 C"
b11111111000000110000001110010011 F"
b11000 7
b11000 ["
b11000 _"
b10100 N
b10100 K"
b10100 j"
b10100 R
b10100 !"
b10100 '"
b101000 +
b101000 T"
b101000 *
b101000 O"
b101000 ,
b101000 H"
b101000 W
b101000 ""
b101000 &"
b1010 _
b1010 >"
b1010 S"
b1010 `
b1010 ="
b1010 N"
b11100 G
b11100 z
b11100 ^"
b10000 Y
b10000 {
b10000 E"
b11000 8
b11000 w
b11000 ]"
b10100 5
b10100 x
b10100 B"
b10100 G"
b10100 \"
b101 $
1!
#275
0!
#300
0:
b1010000 j
b1010000 m
b1010000 Z"
1H
b10100000 i
b10100000 p
b10100000 #"
b11111111111111111111111111100000 F
b11111111111111111111111111100000 y
b11 E
b11 }
b11 2"
1D
b1010000 )
b1010000 $"
b1010000 P
b1010000 W"
b1010000 X"
b1010000 k
b1010000 n
b1010000 R"
b0 3
b0 7"
b0 `"
b0 e"
b101000 4
b101000 8"
b101000 a"
b101000 f"
b11111111111111111111111111110000 ?
b11111111111111111111111111110000 9"
b11111111111111111111111111110000 i"
b111 3"
b10000 5"
b1111111000 6"
b10000 d"
b10011 |
b10000 0"
b101000 2
b101000 U"
b101000 1
b101000 P"
b101000 I
b101000 g"
b101000 l"
b11110011100000111000110011 =
b11110011100000111000110011 C"
b11110011100000111000110011 F"
b11100 7
b11100 ["
b11100 _"
b11111111111111111111111111110100 G
b11111111111111111111111111110100 z
b11111111111111111111111111110100 ^"
b10100 Y
b10100 {
b10100 E"
b11111111000000110000001110010011 X
b11111111000000110000001110010011 D"
b11111111000000110000001110010011 h"
b10100 _
b10100 >"
b10100 S"
b10100 `
b10100 ="
b10100 N"
b101000 R
b101000 !"
b101000 '"
b1010000 +
b1010000 T"
b1010000 *
b1010000 O"
b1010000 ,
b1010000 H"
b1010000 W
b1010000 ""
b1010000 &"
b101000 N
b101000 K"
b101000 j"
b11100 8
b11100 w
b11100 ]"
b11000 5
b11000 x
b11000 B"
b11000 G"
b11000 \"
b110 $
1!
#325
0!
#350
b0 4
b0 8"
b0 a"
b0 f"
b0 )
b0 $"
b0 P
b0 W"
b0 X"
b10100000 k
b10100000 n
b10100000 R"
b0 Z
b0 -"
b0 V"
0H
b10010000 i
b10010000 p
b10010000 #"
b1111000 F
b1111000 y
b10 E
b10 }
b10 2"
0D
b1010000 2
b1010000 U"
b1010000 1
b1010000 P"
b1010000 I
b1010000 g"
b1010000 l"
b11111111111111111111111111110000 j
b11111111111111111111111111110000 m
b11111111111111111111111111110000 Z"
b110 l
b110 o
b110 u
b111100 ?
b111100 9"
b111100 i"
b11100 3"
b11100 5"
b11100 4"
b1000 6"
b11100 d"
b11100 c"
b110011 |
b11100 0"
b11100 /"
b11000000010001000100011 =
b11000000010001000100011 C"
b11000000010001000100011 F"
b100000 7
b100000 ["
b100000 _"
b1010000 N
b1010000 K"
b1010000 j"
b1010000 R
b1010000 !"
b1010000 '"
b10100000 +
b10100000 T"
b10100000 *
b10100000 O"
b10100000 ,
b10100000 H"
b10100000 W
b10100000 ""
b10100000 &"
b111 a
b111 %"
b111 1"
b111 <"
b10000 \
b10000 +"
b10000 @"
b1111111000 g
b1111111000 s
b1111111000 A"
b11111111111111111111111111110000 >
b11111111111111111111111111110000 ;"
b11111111111111111111111111110000 Y"
b0 _
b0 >"
b0 S"
b101000 `
b101000 ="
b101000 N"
1e
b11 f
b11 t
b11 :"
b10010000 G
b10010000 z
b10010000 ^"
b11000 Y
b11000 {
b11000 E"
b11110011100000111000110011 X
b11110011100000111000110011 D"
b11110011100000111000110011 h"
b100000 8
b100000 w
b100000 ]"
b11100 5
b11100 x
b11100 B"
b11100 G"
b11100 \"
b111 $
1!
#375
0!
#400
1H
b0 [
b0 ."
b0 Q"
b1000 F
b1000 y
b10100000 3
b10100000 7"
b10100000 `"
b10100000 e"
1B
b0 E
b0 }
b0 2"
1D
0@
b0 i
b0 p
b0 #"
b0 k
b0 n
b0 R"
b100 ?
b100 9"
b100 i"
b100 3"
b110 5"
b0 4"
b10 6"
b110 d"
b0 c"
b100011 |
b110 0"
b0 /"
b0 j
b0 m
b0 Z"
b101 l
b101 o
b101 u
b10100000 2
b10100000 U"
b10100000 1
b10100000 P"
b10100000 I
b10100000 g"
b10100000 l"
b101010111100000011 =
b101010111100000011 C"
b101010111100000011 F"
b100100 7
b100100 ["
b100100 _"
b100100 G
b100100 z
b100100 ^"
b11100 Y
b11100 {
b11100 E"
b11000000010001000100011 X
b11000000010001000100011 D"
b11000000010001000100011 h"
b11100 a
b11100 %"
b11100 1"
b11100 <"
b11100 \
b11100 +"
b11100 @"
b11100 ]
b11100 ,"
b11100 ?"
b1000 g
b1000 s
b1000 A"
b111100 >
b111100 ;"
b111100 Y"
b0 `
b0 ="
b0 N"
0e
b10 f
b10 t
b10 :"
b0 R
b0 !"
b0 '"
b10010000 +
b10010000 T"
b10010000 *
b10010000 O"
b10010000 ,
b10010000 H"
b10010000 W
b10010000 ""
b10010000 &"
b111 .
b111 )"
b111 Q
b111 ("
b111 J"
b10100000 N
b10100000 K"
b10100000 j"
b100100 8
b100100 w
b100100 ]"
b100000 5
b100000 x
b100000 B"
b100000 G"
b100000 \"
b1000 $
1!
#425
0!
#450
b0 3
b0 7"
b0 `"
b0 e"
0H
b100 i
b100 p
b100 #"
b0 F
b0 y
1C
0B
1@
1A
b10010000 2
b10010000 U"
b10010000 1
b10010000 P"
b10010000 I
b10010000 g"
b10010000 l"
b10100000 )
b10100000 $"
b10100000 P
b10100000 W"
b10100000 X"
b100 j
b100 m
b100 Z"
b1000 l
b1000 o
b1000 u
b0 ?
b0 9"
b0 i"
b11110 3"
b0 5"
b101 4"
b0 d"
b101 c"
b11 |
b0 0"
b101 /"
b1000000000111000010011 =
b1000000000111000010011 C"
b1000000000111000010011 F"
b101000 7
b101000 ["
b101000 _"
b111 0
b111 *"
b111 J
b111 M"
b111 b"
b10010000 N
b10010000 K"
b10010000 j"
b0 +
b0 T"
b0 *
b0 O"
b0 ,
b0 H"
b0 W
b0 ""
b0 &"
b11100 .
b11100 )"
b11100 Q
b11100 ("
b11100 J"
b100 a
b100 %"
b100 1"
b100 <"
b110 \
b110 +"
b110 @"
b0 ]
b0 ,"
b0 ?"
b10 g
b10 s
b10 A"
b100 >
b100 ;"
b100 Y"
b10100000 _
b10100000 >"
b10100000 S"
1e
b0 f
b0 t
b0 :"
1c
0^
b100000 G
b100000 z
b100000 ^"
b100000 Y
b100000 {
b100000 E"
b101010111100000011 X
b101010111100000011 D"
b101010111100000011 h"
b101000 8
b101000 w
b101000 ]"
b100100 5
b100100 x
b100100 B"
b100100 G"
b100100 \"
b1001 $
1!
#475
0!
#500
b100 F
b100 y
0C
b11 E
b11 }
b11 2"
0A
1H
b0 i
b0 p
b0 #"
b10 ?
b10 9"
b10 i"
b11100 3"
b10 5"
b0 4"
b0 6"
b10 d"
b0 c"
b10011 |
b10 0"
b0 /"
b0 j
b0 m
b0 Z"
b0 )
b0 $"
b0 P
b0 W"
b0 X"
b0 2
b0 U"
b0 1
b0 P"
b0 I
b0 g"
b0 l"
b11110011100000111000110011 =
b11110011100000111000110011 C"
b11110011100000111000110011 F"
b101100 7
b101100 ["
b101100 _"
b101000 G
b101000 z
b101000 ^"
b100100 Y
b100100 {
b100100 E"
b1000000000111000010011 X
b1000000000111000010011 D"
b1000000000111000010011 h"
b11110 a
b11110 %"
b11110 1"
b11110 <"
b0 \
b0 +"
b0 @"
b101 ]
b101 ,"
b101 ?"
b0 >
b0 ;"
b0 Y"
b0 _
b0 >"
b0 S"
0c
1d
1b
1^
b10100000 R
b10100000 !"
b10100000 '"
b100 +
b100 T"
b100 *
b100 O"
b100 ,
b100 H"
b100 W
b100 ""
b100 &"
b100 .
b100 )"
b100 Q
b100 ("
b100 J"
1U
0-
0S
b11100 0
b11100 *"
b11100 J
b11100 M"
b11100 b"
b0 N
b0 K"
b0 j"
b101100 8
b101100 w
b101100 ]"
b101000 5
b101000 x
b101000 B"
b101000 G"
b101000 \"
b1010 $
1!
#525
0!
#550
0@
1;
0O
19
0H
b10 i
b10 p
b10 #"
b1111000 F
b1111000 y
b0 E
b0 }
b0 2"
0D
b100 2
b100 U"
b100 1
b100 P"
b100 I
b100 g"
b100 l"
b101 h
b101 ~
b101 I"
b10 j
b10 m
b10 Z"
b110 l
b110 o
b110 u
b111100 ?
b111100 9"
b111100 i"
b11100 5"
b11100 4"
b1000 6"
b11100 d"
b11100 c"
b110011 |
b11100 0"
b11100 /"
b110000 7
b110000 ["
b110000 _"
b100 0
b100 *"
b100 J
b100 M"
b100 b"
b100 N
b100 K"
b100 j"
0/
0K
b0 R
b0 !"
b0 '"
b0 +
b0 T"
b0 *
b0 O"
b0 ,
b0 H"
b0 W
b0 ""
b0 &"
b11110 .
b11110 )"
b11110 Q
b11110 ("
b11110 J"
0U
1V
1T
1-
1S
b11100 a
b11100 %"
b11100 1"
b11100 <"
b10 \
b10 +"
b10 @"
b0 ]
b0 ,"
b0 ?"
b0 g
b0 s
b0 A"
b10 >
b10 ;"
b10 Y"
b11 f
b11 t
b11 :"
0d
0b
b10100000 G
b10100000 z
b10100000 ^"
b101000 Y
b101000 {
b101000 E"
b11110011100000111000110011 X
b11110011100000111000110011 D"
b11110011100000111000110011 h"
b110000 8
b110000 w
b110000 ]"
b101100 5
b101100 x
b101100 B"
b101100 G"
b101100 \"
b1011 $
1!
#575
0!
#600
b10 k
b10 n
b10 R"
b10 E
b10 }
b10 2"
1@
b10 )
b10 $"
b10 P
b10 W"
b10 X"
b10 [
b10 ."
b10 Q"
0;
1O
09
b10 Z
b10 -"
b10 V"
1H
b100 i
b100 p
b100 #"
b10 j
b10 m
b10 Z"
b1000 l
b1000 o
b1000 u
b0 h
b0 ~
b0 I"
b101 2
b101 U"
b101 1
b101 P"
b101 I
b101 g"
b101 l"
b11100 \
b11100 +"
b11100 @"
b11100 ]
b11100 ,"
b11100 ?"
b1000 g
b1000 s
b1000 A"
b111100 >
b111100 ;"
b111100 Y"
0e
b0 f
b0 t
b0 :"
0^
b10 +
b10 T"
b10 *
b10 O"
b10 ,
b10 H"
b10 W
b10 ""
b10 &"
b11100 .
b11100 )"
b11100 Q
b11100 ("
b11100 J"
0V
0T
b101 M
b101 L"
b101 k"
b11110 0
b11110 *"
b11110 J
b11110 M"
b11110 b"
b0 N
b0 K"
b0 j"
1L
1/
1K
b1100 $
b1 (
1!
#625
0!
#650
1:
b10 j
b10 m
b10 Z"
1H
b100 i
b100 p
b100 #"
b1 [
b1 ."
b1 Q"
b1 Z
b1 -"
b1 V"
b10 4
b10 8"
b10 a"
b10 f"
b10 3
b10 7"
b10 `"
b10 e"
b10 )
b10 $"
b10 P
b10 W"
b10 X"
b10 k
b10 n
b10 R"
b10 2
b10 U"
b10 1
b10 P"
b10 I
b10 g"
b10 l"
b101 l
b101 o
b101 u
b110100 7
b110100 ["
b110100 _"
b0 M
b0 L"
b0 k"
b11100 0
b11100 *"
b11100 J
b11100 M"
b11100 b"
b10 N
b10 K"
b10 j"
0L
b10 R
b10 !"
b10 '"
b100 +
b100 T"
b100 *
b100 O"
b100 ,
b100 H"
b100 W
b100 ""
b100 &"
0-
0S
b10 f
b10 t
b10 :"
1^
b10100100 G
b10100100 z
b10100100 ^"
b101100 Y
b101100 {
b101100 E"
b110100 8
b110100 w
b110100 ]"
b110000 5
b110000 x
b110000 B"
b110000 G"
b110000 \"
b1101 $
1!
#675
0!
#700
b100 j
b100 m
b100 Z"
1H
b10000 i
b10000 p
b10000 #"
b10 [
b10 ."
b10 Q"
b10 Z
b10 -"
b10 V"
b100 )
b100 $"
b100 P
b100 W"
b100 X"
b100 k
b100 n
b100 R"
b100 2
b100 U"
b100 1
b100 P"
b100 I
b100 g"
b100 l"
b111000 7
b111000 ["
b111000 _"
b10101000 G
b10101000 z
b10101000 ^"
b110000 Y
b110000 {
b110000 E"
b10 _
b10 >"
b10 S"
b10 `
b10 ="
b10 N"
1-
1S
b100 N
b100 K"
b100 j"
0/
0K
b111000 8
b111000 w
b111000 ]"
b110100 5
b110100 x
b110100 B"
b110100 G"
b110100 \"
b1110 $
1!
#725
0!
#750
b10000 j
b10000 m
b10000 Z"
1H
b100000000 i
b100000000 p
b100000000 #"
b100 4
b100 8"
b100 a"
b100 f"
b100 3
b100 7"
b100 `"
b100 e"
b10000 )
b10000 $"
b10000 P
b10000 W"
b10000 X"
b10000 k
b10000 n
b10000 R"
b111100 7
b111100 ["
b111100 _"
1/
1K
b100 R
b100 !"
b100 '"
b10000 +
b10000 T"
b10000 *
b10000 O"
b10000 ,
b10000 H"
b10000 W
b10000 ""
b10000 &"
b10101100 G
b10101100 z
b10101100 ^"
b110100 Y
b110100 {
b110100 E"
b111100 8
b111100 w
b111100 ]"
b111000 5
b111000 x
b111000 B"
b111000 G"
b111000 \"
b1111 $
1!
#775
0!
