code/CPU.vcd
$date
	Thu Dec 10 11:43:31 2020
$end
$version
	Icarus Verilog
$end
$timescale
	1s
$end
$scope module TestBench $end
$var reg 1 ! Clk $end
$var reg 1 " Reset $end
$var reg 1 # Start $end
$var integer 32 $ counter [31:0] $end
$var integer 32 % flush [31:0] $end
$var integer 32 & i [31:0] $end
$var integer 32 ' outfile [31:0] $end
$var integer 32 ( stall [31:0] $end
$scope module CPU $end
$var wire 32 ) EXMEM_reg2_in [31:0] $end
$var wire 32 * MEM_ALU_RES_2_MUXA [31:0] $end
$var wire 32 + MEM_ALU_RES_2_MUXB [31:0] $end
$var wire 32 , MEM_ALU_RES_AS_OUT [31:0] $end
$var wire 1 - MEM_RegWrite_2_FORWARD $end
$var wire 5 . MEM_rd_2_FORWARD [4:0] $end
$var wire 1 / WB_RegWrite_2_FORWARD $end
$var wire 5 0 WB_rd_out_2_FORWARD [4:0] $end
$var wire 32 1 WB_result_2_MUXA [31:0] $end
$var wire 32 2 WB_result_2_MUXB [31:0] $end
$var wire 1 ! clk_i $end
$var wire 1 " rst_i $end
$var wire 1 # start_i $end
$var wire 32 3 rd2 [31:0] $end
$var wire 32 4 rd1 [31:0] $end
$var wire 32 5 pc_out [31:0] $end
$var wire 1 6 pc_mux_select $end
$var wire 32 7 pc_in [31:0] $end
$var wire 32 8 pc4_adder_out [31:0] $end
$var wire 1 9 noOp $end
$var wire 1 : isZero $end
$var wire 1 ; isStall $end
$var wire 1 < isBranch $end
$var wire 32 = instruction [31:0] $end
$var wire 32 > immediates [31:0] $end
$var wire 32 ? extend_res [31:0] $end
$var wire 1 @ control_2_idex_RegWrite $end
$var wire 1 A control_2_idex_MemtoReg $end
$var wire 1 B control_2_idex_MemWrite $end
$var wire 1 C control_2_idex_MemRead $end
$var wire 1 D control_2_idex_ALUSrc $end
$var wire 2 E control_2_idex_ALUOp [1:0] $end
$var wire 32 F branch_shift_immediates [31:0] $end
$var wire 32 G branch_pc_out [31:0] $end
$var wire 1 H Ze $end
$var wire 32 I WB_result [31:0] $end
$var wire 5 J WB_rd_out [4:0] $end
$var wire 1 K WB_RegWrite $end
$var wire 1 L WB_MemtoReg $end
$var wire 32 M WB_MUX_rs2 [31:0] $end
$var wire 32 N WB_MUX_rs1 [31:0] $end
$var wire 1 O PCWrite $end
$var wire 32 P MUXB_out [31:0] $end
$var wire 5 Q MEM_rd [4:0] $end
$var wire 32 R MEM_WrData [31:0] $end
$var wire 1 S MEM_RegWrite $end
$var wire 1 T MEM_MemtoReg $end
$var wire 1 U MEM_MemWrite $end
$var wire 1 V MEM_MemRead $end
$var wire 32 W MEM_ALU_RES_AS_ADDRESS [31:0] $end
$var wire 32 X Instruction [31:0] $end
$var wire 32 Y ID_PC [31:0] $end
$var wire 2 Z ForwardB [1:0] $end
$var wire 2 [ ForwardA [1:0] $end
$var wire 5 \ EX_Rs2 [4:0] $end
$var wire 5 ] EX_Rs1 [4:0] $end
$var wire 1 ^ EX_RegWrite $end
$var wire 32 _ EX_Rdata2 [31:0] $end
$var wire 32 ` EX_Rdata1 [31:0] $end
$var wire 5 a EX_Rd [4:0] $end
$var wire 1 b EX_MemtoReg $end
$var wire 1 c EX_MemWrite $end
$var wire 1 d EX_MemRead $end
$var wire 1 e EX_ALUSrc $end
$var wire 2 f EX_ALUOp [1:0] $end
$var wire 10 g EX_ALUCtrl [9:0] $end
$var wire 32 h DM_out [31:0] $end
$var wire 32 i ALU_out [31:0] $end
$var wire 32 j ALU_IN2 [31:0] $end
$var wire 32 k ALU_IN1 [31:0] $end
$var wire 4 l ALUCtrl_out [3:0] $end
$scope module ALU $end
$var wire 32 m data2_i [31:0] $end
$var wire 32 n data1_i [31:0] $end
$var wire 4 o ALUCtrl_i [3:0] $end
$var reg 1 H Zero_o $end
$var reg 32 p data_o [31:0] $end
$var reg 5 q shift_left_num [4:0] $end
$var reg 5 r shift_right_num [4:0] $end
$upscope $end
$scope module ALU_Control $end
$var wire 10 s funct_i [9:0] $end
$var wire 2 t ALUOp_i [1:0] $end
$var reg 4 u ALUCtrl_o [3:0] $end
$upscope $end
$scope module Add4_2PC $end
$var wire 32 v data2_in [31:0] $end
$var wire 32 w data_o [31:0] $end
$var wire 32 x data1_in [31:0] $end
$upscope $end
$scope module Add_PC_Branch $end
$var wire 32 y data2_in [31:0] $end
$var wire 32 z data_o [31:0] $end
$var wire 32 { data1_in [31:0] $end
$upscope $end
$scope module Control $end
$var wire 7 | op_i [6:0] $end
$var wire 1 9 NoOp_i $end
$var reg 2 } ALUOp_o [1:0] $end
$var reg 1 D ALUSrc_o $end
$var reg 1 < Branch_o $end
$var reg 1 C MemRead_o $end
$var reg 1 B MemWrite_o $end
$var reg 1 A MemtoReg_o $end
$var reg 1 @ RegWrite_o $end
$upscope $end
$scope module Data_Memory $end
$var wire 1 ! clk_i $end
$var wire 32 ~ data_o [31:0] $end
$var wire 32 !" data_i [31:0] $end
$var wire 32 "" addr_i [31:0] $end
$var wire 1 U MemWrite_i $end
$var wire 1 V MemRead_i $end
$upscope $end
$scope module EXMEM $end
$var wire 32 #" ALUResult_i [31:0] $end
$var wire 32 $" Reg2_i [31:0] $end
$var wire 1 ! clk_i $end
$var wire 1 ^ RegWrite_i $end
$var wire 5 %" Rd_i [4:0] $end
$var wire 1 b MemtoReg_i $end
$var wire 1 c MemWrite_i $end
$var wire 1 d MemRead_i $end
$var reg 32 &" ALUResult_o [31:0] $end
$var reg 32 '" DATAWr_o [31:0] $end
$var reg 1 V MemRead_o $end
$var reg 1 U MemWrite_o $end
$var reg 1 T MemtoReg_o $end
$var reg 5 (" Rd_o [4:0] $end
$var reg 1 S RegWrite_o $end
$upscope $end
$scope module FORWARD_UNIT $end
$var wire 5 )" MEMRd_i [4:0] $end
$var wire 1 - MEMRegWrite_i $end
$var wire 5 *" WBRd_i [4:0] $end
$var wire 1 / WBRegWrite_i $end
$var wire 5 +" Rs2_i [4:0] $end
$var wire 5 ," Rs1_i [4:0] $end
$var wire 2 -" Forward2_o [1:0] $end
$var wire 2 ." Forward1_o [1:0] $end
$upscope $end
$scope module HAZRD_DETECT_UNIT $end
$var wire 5 /" Rs1_i [4:0] $end
$var wire 5 0" Rs2_i [4:0] $end
$var wire 1 ; Stall_o $end
$var wire 1 O PCWrite_o $end
$var wire 1 9 NoOp_o $end
$var wire 1 d ID_EXRead_i $end
$var wire 5 1" EXRd_i [4:0] $end
$upscope $end
$scope module IDEX $end
$var wire 2 2" ALUOp_i [1:0] $end
$var wire 1 D ALUSrc_i $end
$var wire 1 C MemRead_i $end
$var wire 1 B MemWrite_i $end
$var wire 1 A MemtoReg_i $end
$var wire 5 3" Rd_i [4:0] $end
$var wire 1 @ RegWrite_i $end
$var wire 5 4" Rs1_i [4:0] $end
$var wire 5 5" Rs2_i [4:0] $end
$var wire 1 ! clk_i $end
$var wire 10 6" funct_i [9:0] $end
$var wire 32 7" Reg2_i [31:0] $end
$var wire 32 8" Reg1_i [31:0] $end
$var wire 32 9" Imm_i [31:0] $end
$var reg 2 :" ALUOp_o [1:0] $end
$var reg 1 e ALUSrc_o $end
$var reg 32 ;" Imm_o [31:0] $end
$var reg 1 d MemRead_o $end
$var reg 1 c MemWrite_o $end
$var reg 1 b MemtoReg_o $end
$var reg 5 <" Rd_o [4:0] $end
$var reg 32 =" Reg1_o [31:0] $end
$var reg 32 >" Reg2_o [31:0] $end
$var reg 1 ^ RegWrite_o $end
$var reg 5 ?" Rs1_o [4:0] $end
$var reg 5 @" Rs2_o [4:0] $end
$var reg 10 A" funct_o [9:0] $end
$upscope $end
$scope module IFID $end
$var wire 1 ; Stall_i $end
$var wire 1 ! clk_i $end
$var wire 32 B" PC_i [31:0] $end
$var wire 32 C" Inst_i [31:0] $end
$var wire 1 6 Flush_i $end
$var reg 32 D" Inst_o [31:0] $end
$var reg 32 E" PC_o [31:0] $end
$upscope $end
$scope module Instruction_Memory $end
$var wire 32 F" instr_o [31:0] $end
$var wire 32 G" addr_i [31:0] $end
$upscope $end
$scope module IsJunp $end
$var wire 1 < branch_i $end
$var wire 1 : equal_i $end
$var reg 1 6 branch_o $end
$upscope $end
$scope module MEMWB $end
$var wire 32 H" ALUResult_i [31:0] $end
$var wire 32 I" DATARd_i [31:0] $end
$var wire 1 T MemtoReg_i $end
$var wire 5 J" Rd_i [4:0] $end
$var wire 1 S RegWrite_i $end
$var wire 1 ! clk_i $end
$var reg 32 K" ALUResult_o [31:0] $end
$var reg 32 L" DATARd_o [31:0] $end
$var reg 1 L MemtoReg_o $end
$var reg 5 M" Rd_o [4:0] $end
$var reg 1 K RegWrite_o $end
$upscope $end
$scope module MUX32_4A $end
$var wire 32 N" ID_i [31:0] $end
$var wire 32 O" MEM_i [31:0] $end
$var wire 32 P" WB_i [31:0] $end
$var wire 2 Q" signal_i [1:0] $end
$var wire 32 R" data_o [31:0] $end
$upscope $end
$scope module MUX32_4B $end
$var wire 32 S" ID_i [31:0] $end
$var wire 32 T" MEM_i [31:0] $end
$var wire 32 U" WB_i [31:0] $end
$var wire 2 V" signal_i [1:0] $end
$var wire 32 W" data_o [31:0] $end
$upscope $end
$scope module MUX_ALUSrc $end
$var wire 32 X" data1_i [31:0] $end
$var wire 32 Y" data2_i [31:0] $end
$var wire 1 e select_i $end
$var reg 32 Z" data_o [31:0] $end
$upscope $end
$scope module PC $end
$var wire 1 O PCWrite_i $end
$var wire 1 ! clk_i $end
$var wire 1 " rst_i $end
$var wire 1 # start_i $end
$var wire 32 [" pc_i [31:0] $end
$var reg 32 \" pc_o [31:0] $end
$upscope $end
$scope module PC_MUX $end
$var wire 32 ]" data1_i [31:0] $end
$var wire 32 ^" data2_i [31:0] $end
$var wire 1 6 select_i $end
$var reg 32 _" data_o [31:0] $end
$upscope $end
$scope module RS1RS2 $end
$var wire 1 : equal_o $end
$var wire 32 `" data2_i [31:0] $end
$var wire 32 a" data1_i [31:0] $end
$upscope $end
$scope module Registers $end
$var wire 5 b" RDaddr_i [4:0] $end
$var wire 5 c" RS1addr_i [4:0] $end
$var wire 5 d" RS2addr_i [4:0] $end
$var wire 1 K RegWrite_i $end
$var wire 1 ! clk_i $end
$var wire 32 e" RS2data_o [31:0] $end
$var wire 32 f" RS1data_o [31:0] $end
$var wire 32 g" RDdata_i [31:0] $end
$upscope $end
$scope module Sign_Extender $end
$var wire 32 h" data_i [31:0] $end
$var reg 32 i" data_o [31:0] $end
$upscope $end
$scope module WB_MUX $end
$var wire 32 j" data1_i [31:0] $end
$var wire 32 k" data2_i [31:0] $end
$var wire 1 L select_i $end
$var reg 32 l" data_o [31:0] $end
$upscope $end
$upscope $end
$upscope $end
$enddefinitions $end
#0
$dumpvars
b0 l"
b0 k"
b0 j"
b0 i"
b0 h"
b0 g"
b0 f"
b0 e"
b0 d"
b0 c"
b0 b"
b0 a"
b0 `"
b100 _"
b0 ^"
b100 ]"
b0 \"
b100 ["
bx Z"
b0 Y"
bx X"
bx W"
b0 V"
b0 U"
bx T"
bx S"
bx R"
b0 Q"
b0 P"
bx O"
bx N"
b0 M"
b0 L"
b0 K"
b0 J"
b0 I"
bx H"
b0 G"
b111100000000001100010011 F"
b0 E"
b0 D"
b111100000000001100010011 C"
b0 B"
b0 A"
b0 @"
b0 ?"
bx >"
bx ="
b0 <"
b0 ;"
b0 :"
b0 9"
b0 8"
b0 7"
b0 6"
b0 5"
b0 4"
b0 3"
b0 2"
b0 1"
b0 0"
b0 /"
b0 ."
b0 -"
b0 ,"
b0 +"
b0 *"
b0 )"
b0 ("
bx '"
bx &"
b0 %"
bx $"
bx #"
bx ""
bx !"
b0 ~
b0 }
b0 |
b0 {
b0 z
b0 y
b0 x
b100 w
b100 v
b1000 u
b0 t
b0 s
bx r
bx q
bx p
b1000 o
bx n
bx m
b1000 l
bx k
bx j
bx i
b0 h
b0 g
b0 f
0e
0d
0c
0b
b0 a
bx `
bx _
0^
b0 ]
b0 \
b0 [
b0 Z
b0 Y
b0 X
bx W
0V
0U
0T
0S
bx R
b0 Q
bx P
1O
b0 N
b0 M
0L
0K
b0 J
b0 I
0H
b0 G
b0 F
b0 E
0D
0C
0B
0A
0@
b0 ?
b0 >
b111100000000001100010011 =
0<
0;
0:
09
b100 8
b100 7
06
b0 5
b0 4
b0 3
b0 2
b0 1
b0 0
0/
b0 .
0-
bx ,
bx +
bx *
bx )
b0 (
b101 '
b100000 &
b0 %
b0 $
0#
1"
1!
$end
#12
1#
0"
#25
0!
#50
1H
b0 i
b0 p
b0 #"
b0 j
b0 m
b0 Z"
b11110 G
b11110 z
b11110 ^"
b11110 F
b11110 y
b11 E
b11 }
b11 2"
1D
1@
bx 2
bx U"
bx 1
bx P"
bx I
bx g"
bx l"
b0 )
b0 $"
b0 P
b0 W"
b0 X"
b0 k
b0 n
b0 R"
b1111 ?
b1111 9"
b1111 i"
b110 3"
b1111 5"
b1111 d"
b10011 |
b1111 0"
b11000000010001000100011 =
b11000000010001000100011 C"
b11000000010001000100011 F"
b1000 7
b1000 ["
b1000 _"
bx N
bx K"
bx j"
b0 _
b0 >"
b0 S"
b0 `
b0 ="
b0 N"
b111100000000001100010011 X
b111100000000001100010011 D"
b111100000000001100010011 h"
b1000 8
b1000 w
b1000 ]"
b100 5
b100 x
b100 B"
b100 G"
b100 \"
b1 $
1!
#75
0!
#100
b1000 F
b1000 y
1B
b0 E
b0 }
b0 2"
0@
0H
b1111 i
b1111 p
b1111 #"
b100 ?
b100 9"
b100 i"
b100 3"
b110 5"
b10 6"
b110 d"
b100011 |
b110 0"
b1111 j
b1111 m
b1111 Z"
b110 l
b110 o
b110 u
b101010111100000011 =
b101010111100000011 C"
b101010111100000011 F"
b1100 7
b1100 ["
b1100 _"
b1100 G
b1100 z
b1100 ^"
b100 Y
b100 {
b100 E"
b11000000010001000100011 X
b11000000010001000100011 D"
b11000000010001000100011 h"
b110 a
b110 %"
b110 1"
b110 <"
b1111 \
b1111 +"
b1111 @"
b1111 >
b1111 ;"
b1111 Y"
1e
b11 f
b11 t
b11 :"
1^
b0 R
b0 !"
b0 '"
b0 +
b0 T"
b0 *
b0 O"
b0 ,
b0 H"
b0 W
b0 ""
b0 &"
b1100 8
b1100 w
b1100 ]"
b1000 5
b1000 x
b1000 B"
b1000 G"
b1000 \"
b10 $
1!
#125
0!
#150
b1111 )
b1111 $"
b1111 P
b1111 W"
b1111 X"
b10 Z
b10 -"
b10 V"
b100 i
b100 p
b100 #"
b0 F
b0 y
1C
0B
1@
1A
b0 2
b0 U"
b0 1
b0 P"
b0 I
b0 g"
b0 l"
b100 j
b100 m
b100 Z"
b1000 l
b1000 o
b1000 u
b0 ?
b0 9"
b0 i"
b11110 3"
b0 5"
b101 4"
b0 d"
b101 c"
b11 |
b0 0"
b101 /"
b11111000110000001010110011 =
b11111000110000001010110011 C"
b11111000110000001010110011 F"
b10000 7
b10000 ["
b10000 _"
b0 N
b0 K"
b0 j"
b1111 +
b1111 T"
b1111 *
b1111 O"
b1111 ,
b1111 H"
b1111 W
b1111 ""
b1111 &"
b110 .
b110 )"
b110 Q
b110 ("
b110 J"
1-
1S
b100 a
b100 %"
b100 1"
b100 <"
b110 \
b110 +"
b110 @"
b10 g
b10 s
b10 A"
b100 >
b100 ;"
b100 Y"
b0 f
b0 t
b0 :"
1c
0^
b1000 G
b1000 z
b1000 ^"
b1000 Y
b1000 {
b1000 E"
b101010111100000011 X
b101010111100000011 D"
b101010111100000011 h"
b10000 8
b10000 w
b10000 ]"
b1100 5
b1100 x
b1100 B"
b1100 G"
b1100 \"
b11 $
1!
#175
0!
#200
0@
1;
0O
19
b1111 4
b1111 8"
b1111 a"
b1111 f"
b0 Z
b0 -"
b0 V"
b1111100 F
b1111100 y
0C
b0 E
b0 }
b0 2"
0D
0A
1H
b0 i
b0 p
b0 #"
b0 )
b0 $"
b0 P
b0 W"
b0 X"
b111110 ?
b111110 9"
b111110 i"
b101 3"
b11110 5"
b110 4"
b1000 6"
b11110 d"
b110 c"
b110011 |
b11110 0"
b110 /"
b0 j
b0 m
b0 Z"
b1111 2
b1111 U"
b1111 1
b1111 P"
b1111 I
b1111 g"
b1111 l"
b101100001110110011 =
b101100001110110011 C"
b101100001110110011 F"
b10100 7
b10100 ["
b10100 _"
b10001000 G
b10001000 z
b10001000 ^"
b1100 Y
b1100 {
b1100 E"
b11111000110000001010110011 X
b11111000110000001010110011 D"
b11111000110000001010110011 h"
b11110 a
b11110 %"
b11110 1"
b11110 <"
b0 \
b0 +"
b0 @"
b101 ]
b101 ,"
b101 ?"
b0 >
b0 ;"
b0 Y"
0c
1d
1b
1^
b1111 R
b1111 !"
b1111 '"
b100 +
b100 T"
b100 *
b100 O"
b100 ,
b100 H"
b100 W
b100 ""
b100 &"
b100 .
b100 )"
b100 Q
b100 ("
b100 J"
1U
0-
0S
b110 0
b110 *"
b110 J
b110 M"
b110 b"
b1111 N
b1111 K"
b1111 j"
1/
1K
b10100 8
b10100 w
b10100 ]"
b10000 5
b10000 x
b10000 B"
b10000 G"
b10000 \"
b100 $
1!
#225
0!
#250
b10 E
b10 }
b10 2"
1@
b10 Z
b10 -"
b10 V"
09
1O
0;
0H
b1111 i
b1111 p
b1111 #"
b100 2
b100 U"
b100 1
b100 P"
b100 I
b100 g"
b100 l"
b101 h
b101 ~
b101 I"
b1111 k
b1111 n
b1111 R"
b100 0
b100 *"
b100 J
b100 M"
b100 b"
b100 N
b100 K"
b100 j"
0/
0K
b0 R
b0 !"
b0 '"
b0 +
b0 T"
b0 *
b0 O"
b0 ,
b0 H"
b0 W
b0 ""
b0 &"
b11110 .
b11110 )"
b11110 Q
b11110 ("
b11110 J"
0U
1V
1T
1-
1S
b101 a
b101 %"
b101 1"
b101 <"
b11110 \
b11110 +"
b11110 @"
b110 ]
b110 ,"
b110 ?"
b1000 g
b1000 s
b1000 A"
b111110 >
b111110 ;"
b111110 Y"
b1111 `
b1111 ="
b1111 N"
0e
0d
0b
0^
b101 $
b1 (
1!
#275
0!
#300
0H
b101 j
b101 m
b101 Z"
b1 Z
b1 -"
b1 V"
b0 F
b0 y
b0 4
b0 8"
b0 a"
b0 f"
b1001011 i
b1001011 p
b1001011 #"
b101 )
b101 $"
b101 P
b101 W"
b101 X"
b0 3
b0 7"
b0 `"
b0 e"
b0 ?
b0 9"
b0 i"
b111 3"
b0 5"
b101 4"
b100 6"
b0 d"
b101 c"
b0 0"
b101 /"
b101 l
b101 o
b101 u
b0 h
b0 ~
b0 I"
b101 2
b101 U"
b101 1
b101 P"
b101 I
b101 g"
b101 l"
b11100000010010000100011 =
b11100000010010000100011 C"
b11100000010010000100011 F"
b11000 7
b11000 ["
b11000 _"
b10000 G
b10000 z
b10000 ^"
b10000 Y
b10000 {
b10000 E"
b101100001110110011 X
b101100001110110011 D"
b101100001110110011 h"
b10 f
b10 t
b10 :"
1^
b1111 +
b1111 T"
b1111 *
b1111 O"
b1111 ,
b1111 H"
b1111 W
b1111 ""
b1111 &"
b101 .
b101 )"
b101 Q
b101 ("
b101 J"
0V
0T
0-
0S
b101 M
b101 L"
b101 k"
b11110 0
b11110 *"
b11110 J
b11110 M"
b11110 b"
b0 N
b0 K"
b0 j"
1L
1/
1K
b11000 8
b11000 w
b11000 ]"
b10100 5
b10100 x
b10100 B"
b10100 G"
b10100 \"
b110 $
1!
#325
0!
#350
b0 j
b0 m
b0 Z"
b0 Z
b0 -"
b0 V"
b0 )
b0 $"
b0 P
b0 W"
b0 X"
b10 [
b10 ."
b10 Q"
b1001011 i
b1001011 p
b1001011 #"
b10000 F
b10000 y
1B
b0 E
b0 }
b0 2"
1D
0@
b1111 2
b1111 U"
b1111 1
b1111 P"
b1111 I
b1111 g"
b1111 l"
b1 l
b1 o
b1 u
b1001011 k
b1001011 n
b1001011 R"
b1000 ?
b1000 9"
b1000 i"
b1000 3"
b111 5"
b0 4"
b10 6"
b111 d"
b0 c"
b100011 |
b111 0"
b0 /"
b11000110000001100110011 =
b11000110000001100110011 C"
b11000110000001100110011 F"
b11100 7
b11100 ["
b11100 _"
b0 M
b0 L"
b0 k"
b101 0
b101 *"
b101 J
b101 M"
b101 b"
b1111 N
b1111 K"
b1111 j"
0L
0/
0K
b101 R
b101 !"
b101 '"
b1001011 +
b1001011 T"
b1001011 *
b1001011 O"
b1001011 ,
b1001011 H"
b1001011 W
b1001011 ""
b1001011 &"
1-
1S
b111 a
b111 %"
b111 1"
b111 <"
b0 \
b0 +"
b0 @"
b101 ]
b101 ,"
b101 ?"
b100 g
b100 s
b100 A"
b0 >
b0 ;"
b0 Y"
b0 `
b0 ="
b0 N"
b100100 G
b100100 z
b100100 ^"
b10100 Y
b10100 {
b10100 E"
b11100000010010000100011 X
b11100000010010000100011 D"
b11100000010010000100011 h"
b11100 8
b11100 w
b11100 ]"
b11000 5
b11000 x
b11000 B"
b11000 G"
b11000 \"
b111 $
1!
#375
0!
#400
1:
b1001011 )
b1001011 $"
b1001011 P
b1001011 W"
b1001011 X"
b0 k
b0 n
b0 R"
b10 Z
b10 -"
b10 V"
b0 [
b0 ."
b0 Q"
b1100 F
b1100 y
b1111 3
b1111 7"
b1111 `"
b1111 e"
b1111 4
b1111 8"
b1111 a"
b1111 f"
0B
b10 E
b10 }
b10 2"
0D
1@
b1000 i
b1000 p
b1000 #"
b110 ?
b110 9"
b110 i"
b110 3"
b110 5"
b110 4"
b0 6"
b110 d"
b110 c"
b110011 |
b110 0"
b110 /"
b1000 j
b1000 m
b1000 Z"
b1000 l
b1000 o
b1000 u
b1001011 2
b1001011 U"
b1001011 1
b1001011 P"
b1001011 I
b1001011 g"
b1001011 l"
b100000 7
b100000 ["
b100000 _"
b100100 G
b100100 z
b100100 ^"
b11000 Y
b11000 {
b11000 E"
b11000110000001100110011 X
b11000110000001100110011 D"
b11000110000001100110011 h"
b1000 a
b1000 %"
b1000 1"
b1000 <"
b111 \
b111 +"
b111 @"
b0 ]
b0 ,"
b0 ?"
b10 g
b10 s
b10 A"
b1000 >
b1000 ;"
b1000 Y"
1e
b0 f
b0 t
b0 :"
1c
0^
b0 R
b0 !"
b0 '"
b111 .
b111 )"
b111 Q
b111 ("
b111 J"
b1001011 N
b1001011 K"
b1001011 j"
1/
1K
b100000 8
b100000 w
b100000 ]"
b11100 5
b11100 x
b11100 B"
b11100 G"
b11100 \"
b1000 $
1!
#425
0!
#450
1H
b0 Z
b0 -"
b0 V"
b1111 )
b1111 $"
b1111 P
b1111 W"
b1111 X"
b11110 i
b11110 p
b11110 #"
b1111 k
b1111 n
b1111 R"
b1111 j
b1111 m
b1111 Z"
b11 l
b11 o
b11 u
b100000000010111010000011 =
b100000000010111010000011 C"
b100000000010111010000011 F"
b100100 7
b100100 ["
b100100 _"
b111 0
b111 *"
b111 J
b111 M"
b111 b"
b1001011 R
b1001011 !"
b1001011 '"
b1000 +
b1000 T"
b1000 *
b1000 O"
b1000 ,
b1000 H"
b1000 W
b1000 ""
b1000 &"
b1000 .
b1000 )"
b1000 Q
b1000 ("
b1000 J"
1U
0-
0S
b110 a
b110 %"
b110 1"
b110 <"
b110 \
b110 +"
b110 @"
b110 ]
b110 ,"
b110 ?"
b0 g
b0 s
b0 A"
b110 >
b110 ;"
b110 Y"
b1111 _
b1111 >"
b1111 S"
b1111 `
b1111 ="
b1111 N"
0e
b10 f
b10 t
b10 :"
0c
1^
b101000 G
b101000 z
b101000 ^"
b11100 Y
b11100 {
b11100 E"
b100100 8
b100100 w
b100100 ]"
b100000 5
b100000 x
b100000 B"
b100000 G"
b100000 \"
b1001 $
1!
#475
0!
#500
b111100 i
b111100 p
b111100 #"
b11110 j
b11110 m
b11110 Z"
0:
b11110 k
b11110 n
b11110 R"
b11110 )
b11110 $"
b11110 P
b11110 W"
b11110 X"
b10 [
b10 ."
b10 Q"
b10 Z
b10 -"
b10 V"
b10000 F
b10000 y
b0 3
b0 7"
b0 `"
b0 e"
b0 4
b0 8"
b0 a"
b0 f"
1C
b0 E
b0 }
b0 2"
1D
1A
b1000 ?
b1000 9"
b1000 i"
b11101 3"
b1000 5"
b0 4"
b10 6"
b1000 d"
b0 c"
b11 |
b1000 0"
b0 /"
b1000 2
b1000 U"
b1000 1
b1000 P"
b1000 I
b1000 g"
b1000 l"
b1110100110111111000110011 =
b1110100110111111000110011 C"
b1110100110111111000110011 F"
b101000 7
b101000 ["
b101000 _"
b110000 G
b110000 z
b110000 ^"
b100000 Y
b100000 {
b100000 E"
b100000000010111010000011 X
b100000000010111010000011 D"
b100000000010111010000011 h"
b1111 R
b1111 !"
b1111 '"
b11110 +
b11110 T"
b11110 *
b11110 O"
b11110 ,
b11110 H"
b11110 W
b11110 ""
b11110 &"
b110 .
b110 )"
b110 Q
b110 ("
b110 J"
0U
1-
1S
b1000 0
b1000 *"
b1000 J
b1000 M"
b1000 b"
b1000 N
b1000 K"
b1000 j"
0/
0K
b101000 8
b101000 w
b101000 ]"
b100100 5
b100100 x
b100100 B"
b100100 G"
b100100 \"
b1010 $
1!
#525
0!
#550
0@
1;
0O
19
b0 Z
b0 -"
b0 V"
b0 [
b0 ."
b0 Q"
b0 )
b0 $"
b0 P
b0 W"
b0 X"
b0 k
b0 n
b0 R"
0H
b1000 i
b1000 p
b1000 #"
b111010 F
b111010 y
b11110 4
b11110 8"
b11110 a"
b11110 f"
0C
b0 E
b0 }
b0 2"
0D
0A
b11110 2
b11110 U"
b11110 1
b11110 P"
b11110 I
b11110 g"
b11110 l"
b1000 j
b1000 m
b1000 Z"
b1000 l
b1000 o
b1000 u
b11101 ?
b11101 9"
b11101 i"
b11100 3"
b11101 5"
b110 4"
b111 6"
b11101 d"
b110 c"
b110011 |
b11101 0"
b110 /"
b11111111000000110000001110010011 =
b11111111000000110000001110010011 C"
b11111111000000110000001110010011 F"
b101100 7
b101100 ["
b101100 _"
b110 0
b110 *"
b110 J
b110 M"
b110 b"
b11110 N
b11110 K"
b11110 j"
1/
1K
b11110 R
b11110 !"
b11110 '"
b111100 +
b111100 T"
b111100 *
b111100 O"
b111100 ,
b111100 H"
b111100 W
b111100 ""
b111100 &"
b11101 a
b11101 %"
b11101 1"
b11101 <"
b1000 \
b1000 +"
b1000 @"
b0 ]
b0 ,"
b0 ?"
b10 g
b10 s
b10 A"
b1000 >
b1000 ;"
b1000 Y"
b0 _
b0 >"
b0 S"
b0 `
b0 ="
b0 N"
1e
b0 f
b0 t
b0 :"
1d
1b
b1011110 G
b1011110 z
b1011110 ^"
b100100 Y
b100100 {
b100100 E"
b1110100110111111000110011 X
b1110100110111111000110011 D"
b1110100110111111000110011 h"
b101100 8
b101100 w
b101100 ]"
b101000 5
b101000 x
b101000 B"
b101000 G"
b101000 \"
b1011 $
1!
#575
0!
#600
b1000 )
b1000 $"
b1000 P
b1000 W"
b1000 X"
b1 [
b1 ."
b1 Q"
b10 E
b10 }
b10 2"
1@
b10 Z
b10 -"
b10 V"
09
1O
0;
b1000100 i
b1000100 p
b1000100 #"
b1001011 h
b1001011 ~
b1001011 I"
b111100 4
b111100 8"
b111100 a"
b111100 f"
b111100 k
b111100 n
b111100 R"
b1000 j
b1000 m
b1000 Z"
b111100 2
b111100 U"
b111100 1
b111100 P"
b111100 I
b111100 g"
b111100 l"
b11100 a
b11100 %"
b11100 1"
b11100 <"
b11101 \
b11101 +"
b11101 @"
b110 ]
b110 ,"
b110 ?"
b111 g
b111 s
b111 A"
b11101 >
b11101 ;"
b11101 Y"
b11110 `
b11110 ="
b11110 N"
0e
0d
0b
0^
b0 R
b0 !"
b0 '"
b1000 +
b1000 T"
b1000 *
b1000 O"
b1000 ,
b1000 H"
b1000 W
b1000 ""
b1000 &"
b11101 .
b11101 )"
b11101 Q
b11101 ("
b11101 J"
1V
1T
b111100 N
b111100 K"
b111100 j"
b1100 $
b10 (
1!
#625
0!
#650
b0 [
b0 ."
b0 Q"
b111100 k
b111100 n
b111100 R"
b1001011 j
b1001011 m
b1001011 Z"
b1 Z
b1 -"
b1 V"
b1001011 )
b1001011 $"
b1001011 P
b1001011 W"
b1001011 X"
b1000 i
b1000 p
b1000 #"
b11111111111111111111111111100000 F
b11111111111111111111111111100000 y
b11 E
b11 }
b11 2"
1D
b1001011 2
b1001011 U"
b1001011 1
b1001011 P"
b1001011 I
b1001011 g"
b1001011 l"
b0 h
b0 ~
b0 I"
b0 l
b0 o
b0 u
b11111111111111111111111111110000 ?
b11111111111111111111111111110000 9"
b11111111111111111111111111110000 i"
b111 3"
b10000 5"
b1111111000 6"
b10000 d"
b10011 |
b10000 0"
b1000000000111000010011 =
b1000000000111000010011 C"
b1000000000111000010011 F"
b110000 7
b110000 ["
b110000 _"
b1001011 M
b1001011 L"
b1001011 k"
b11101 0
b11101 *"
b11101 J
b11101 M"
b11101 b"
b1000 N
b1000 K"
b1000 j"
1L
b1000 R
b1000 !"
b1000 '"
b1000100 +
b1000100 T"
b1000100 *
b1000100 O"
b1000100 ,
b1000100 H"
b1000100 W
b1000100 ""
b1000100 &"
b11100 .
b11100 )"
b11100 Q
b11100 ("
b11100 J"
0V
0T
0-
0S
b111100 `
b111100 ="
b111100 N"
b10 f
b10 t
b10 :"
1^
b1000 G
b1000 z
b1000 ^"
b101000 Y
b101000 {
b101000 E"
b11111111000000110000001110010011 X
b11111111000000110000001110010011 D"
b11111111000000110000001110010011 h"
b110000 8
b110000 w
b110000 ]"
b101100 5
b101100 x
b101100 B"
b101100 G"
b101100 \"
b1101 $
1!
#675
0!
